
<svg xmlns="http://www.w3.org/2000/svg" version="1.1" xmlns:xlink="http://www.w3.org/1999/xlink" preserveAspectRatio="none" x="0px" y="0px" width="160px" height="600px" viewBox="0 0 160 600">
<defs>
<g id="SKYSCRAPER_160_X_600_PRODUCT_June_21_psd_Asset_OPTION_1_FRAME_3_Get_lost__Get_found__0_Layer0_0_MEMBER_0_FILL">
<path fill="#FFFFFF" stroke="none" d="
M -41.65 -5.8
L -41.65 -3.95 -39.55 -3.95
Q -39.95 -1.85 -42.1 -1.85 -43.45 -1.85 -44.3 -2.9 -45.1 -3.9 -45.1 -5.55 -45.1 -7.15 -44.3 -8.15 -43.5 -9.2 -42.15 -9.2 -40.45 -9.2 -39.8 -7.5
L -37.5 -7.5
Q -37.8 -9.2 -39 -10.2 -40.2 -11.25 -42.15 -11.25 -44.45 -11.25 -45.95 -9.65 -47.45 -8.05 -47.45 -5.55 -47.45 -3 -45.95 -1.4 -44.45 0.2 -42.1 0.2 -40 0.2 -38.65 -1.15 -37.3 -2.55 -37.3 -4.85
L -37.3 -5.8 -41.65 -5.8 Z"/>
</g>

<g id="SKYSCRAPER_160_X_600_PRODUCT_June_21_psd_Asset_OPTION_1_FRAME_3_Get_lost__Get_found__0_Layer0_0_MEMBER_1_FILL">
<path fill="#FFFFFF" stroke="none" d="
M -30.75 -6.65
L -30.75 -9.05 -25.5 -9.05 -25.5 -11.05 -33.05 -11.05 -33.05 0 -25.5 0 -25.5 -2.05 -30.75 -2.05 -30.75 -4.65 -26 -4.65 -26 -6.65 -30.75 -6.65 Z"/>
</g>

<g id="SKYSCRAPER_160_X_600_PRODUCT_June_21_psd_Asset_OPTION_1_FRAME_3_Get_lost__Get_found__0_Layer0_0_MEMBER_2_FILL">
<path fill="#FFFFFF" stroke="none" d="
M -21.65 -11.05
L -21.65 -9.05 -18.1 -9.05 -18.1 0 -15.75 0 -15.75 -9.05 -12.2 -9.05 -12.2 -11.05 -21.65 -11.05 Z"/>
</g>

<g id="SKYSCRAPER_160_X_600_PRODUCT_June_21_psd_Asset_OPTION_1_FRAME_3_Get_lost__Get_found__0_Layer0_0_MEMBER_3_FILL">
<path fill="#FFFFFF" stroke="none" d="
M 0.85 -2.05
L 0.85 -11.05 -1.5 -11.05 -1.5 0 6 0 6 -2.05 0.85 -2.05 Z"/>
</g>

<g id="SKYSCRAPER_160_X_600_PRODUCT_June_21_psd_Asset_OPTION_1_FRAME_3_Get_lost__Get_found__0_Layer0_0_MEMBER_4_FILL">
<path fill="#FFFFFF" stroke="none" d="
M 14.55 -11.25
Q 12.25 -11.25 10.8 -9.65 9.35 -8.05 9.35 -5.55 9.35 -3.05 10.8 -1.45 12.3 0.2 14.55 0.2 16.85 0.2 18.35 -1.45 19.8 -3.05 19.8 -5.55 19.8 -8.05 18.35 -9.65 16.85 -11.25 14.55 -11.25
M 12.45 -8.2
Q 13.25 -9.2 14.55 -9.2 15.9 -9.2 16.7 -8.2 17.5 -7.15 17.5 -5.55 17.5 -3.9 16.7 -2.85 15.9 -1.85 14.55 -1.85 13.25 -1.85 12.45 -2.85 11.7 -3.9 11.7 -5.55 11.7 -7.2 12.45 -8.2 Z"/>
</g>

<g id="SKYSCRAPER_160_X_600_PRODUCT_June_21_psd_Asset_OPTION_1_FRAME_3_Get_lost__Get_found__0_Layer0_0_MEMBER_5_FILL">
<path fill="#FFFFFF" stroke="none" d="
M 29.15 -6.35
L 27.15 -6.85
Q 25.9 -7.15 25.9 -8.05 25.9 -9.35 27.65 -9.35 29.2 -9.35 29.65 -8.05
L 31.95 -8.05
Q 31.7 -9.5 30.6 -10.35 29.45 -11.25 27.6 -11.25 25.85 -11.25 24.75 -10.3 23.65 -9.35 23.65 -7.85 23.65 -5.4 26.45 -4.8
L 28.4 -4.35
Q 29.75 -4.1 29.75 -3.1 29.75 -1.75 27.9 -1.75 26.2 -1.75 25.7 -3.15
L 23.35 -3.15
Q 23.6 -1.6 24.85 -0.7 26.05 0.2 27.95 0.2 29.75 0.2 30.9 -0.7 32.05 -1.65 32.05 -3.25 32.05 -5.7 29.15 -6.35 Z"/>
</g>

<g id="SKYSCRAPER_160_X_600_PRODUCT_June_21_psd_Asset_OPTION_1_FRAME_3_Get_lost__Get_found__0_Layer0_0_MEMBER_6_FILL">
<path fill="#FFFFFF" stroke="none" d="
M 35.55 -11.05
L 35.55 -9.05 39.1 -9.05 39.1 0 41.45 0 41.45 -9.05 45 -9.05 45 -11.05 35.55 -11.05 Z"/>
</g>

<g id="SKYSCRAPER_160_X_600_PRODUCT_June_21_psd_Asset_OPTION_1_FRAME_3_Get_lost__Get_found__0_Layer0_0_MEMBER_7_FILL">
<path fill="#FFFFFF" stroke="none" d="
M 45.1 -2.3
Q 44.7 -1.9 44.7 -1.3 44.7 -0.7 45.1 -0.25 45.5 0.15 46.1 0.15 46.65 0.15 47.1 -0.25 47.5 -0.7 47.5 -1.3 47.5 -1.9 47.1 -2.3 46.65 -2.75 46.1 -2.75 45.5 -2.75 45.1 -2.3 Z"/>
</g>

<g id="SKYSCRAPER_160_X_600_PRODUCT_June_21_psd_Asset_OPTION_1_FRAME_3_Get_lost__Get_found__0_Layer0_0_MEMBER_8_FILL">
<path fill="#FFFFFF" stroke="none" d="
M -47.35 11.5
Q -47.65 9.8 -48.85 8.85 -50.05 7.8 -52 7.8 -54.3 7.8 -55.75 9.4 -57.3 11 -57.3 13.5 -57.3 16 -55.8 17.6 -54.3 19.2 -51.95 19.2 -49.85 19.2 -48.5 17.85 -47.15 16.45 -47.15 14.2
L -47.15 13.2 -51.5 13.2 -51.5 15.05 -49.4 15.05
Q -49.8 17.15 -51.95 17.15 -53.3 17.15 -54.15 16.15 -54.95 15.15 -54.95 13.5 -54.95 11.85 -54.15 10.85 -53.35 9.85 -52 9.85 -50.3 9.85 -49.65 11.5
L -47.35 11.5 Z"/>
</g>

<g id="SKYSCRAPER_160_X_600_PRODUCT_June_21_psd_Asset_OPTION_1_FRAME_3_Get_lost__Get_found__0_Layer0_0_MEMBER_9_FILL">
<path fill="#FFFFFF" stroke="none" d="
M -35.35 9.95
L -35.35 7.95 -42.85 7.95 -42.85 19 -35.35 19 -35.35 17 -40.6 17 -40.6 14.35 -35.85 14.35 -35.85 12.4 -40.6 12.4 -40.6 9.95 -35.35 9.95 Z"/>
</g>

<g id="SKYSCRAPER_160_X_600_PRODUCT_June_21_psd_Asset_OPTION_1_FRAME_3_Get_lost__Get_found__0_Layer0_0_MEMBER_10_FILL">
<path fill="#FFFFFF" stroke="none" d="
M -31.45 7.95
L -31.45 9.95 -27.95 9.95 -27.95 19 -25.6 19 -25.6 9.95 -22.05 9.95 -22.05 7.95 -31.45 7.95 Z"/>
</g>

<g id="SKYSCRAPER_160_X_600_PRODUCT_June_21_psd_Asset_OPTION_1_FRAME_3_Get_lost__Get_found__0_Layer0_0_MEMBER_11_FILL">
<path fill="#FFFFFF" stroke="none" d="
M -3.95 9.95
L -3.95 7.95 -11.3 7.95 -11.3 19 -9.05 19 -9.05 14.8 -4.35 14.8 -4.35 12.8 -9.05 12.8 -9.05 9.95 -3.95 9.95 Z"/>
</g>

<g id="SKYSCRAPER_160_X_600_PRODUCT_June_21_psd_Asset_OPTION_1_FRAME_3_Get_lost__Get_found__0_Layer0_0_MEMBER_12_FILL">
<path fill="#FFFFFF" stroke="none" d="
M 5.05 7.8
Q 2.75 7.8 1.25 9.4 -0.2 11 -0.2 13.5 -0.2 16 1.25 17.6 2.75 19.2 5.05 19.2 7.35 19.2 8.8 17.6 10.25 16 10.25 13.5 10.25 11 8.8 9.4 7.35 7.8 5.05 7.8
M 5.05 9.85
Q 6.35 9.85 7.15 10.85 7.95 11.85 7.95 13.5 7.95 15.1 7.15 16.15 6.35 17.15 5.05 17.15 3.75 17.15 2.95 16.15 2.15 15.1 2.15 13.5 2.15 11.85 2.95 10.85 3.75 9.85 5.05 9.85 Z"/>
</g>

<g id="SKYSCRAPER_160_X_600_PRODUCT_June_21_psd_Asset_OPTION_1_FRAME_3_Get_lost__Get_found__0_Layer0_0_MEMBER_13_FILL">
<path fill="#FFFFFF" stroke="none" d="
M 22.35 18
Q 23.6 16.8 23.6 14.55
L 23.6 7.95 21.3 7.95 21.3 14.35
Q 21.3 17.1 19 17.1 16.7 17.1 16.7 14.35
L 16.7 7.95 14.4 7.95 14.4 14.55
Q 14.4 16.8 15.65 18 16.9 19.2 19 19.2 21.1 19.2 22.35 18 Z"/>
</g>

<g id="SKYSCRAPER_160_X_600_PRODUCT_June_21_psd_Asset_OPTION_1_FRAME_3_Get_lost__Get_found__0_Layer0_0_MEMBER_14_FILL">
<path fill="#FFFFFF" stroke="none" d="
M 37.5 7.95
L 35.3 7.95 35.3 14.95 30.4 7.95 28.25 7.95 28.25 19 30.45 19 30.45 11.65 35.7 19 37.5 19 37.5 7.95 Z"/>
</g>

<g id="SKYSCRAPER_160_X_600_PRODUCT_June_21_psd_Asset_OPTION_1_FRAME_3_Get_lost__Get_found__0_Layer0_0_MEMBER_15_FILL">
<path fill="#FFFFFF" stroke="none" d="
M 46.25 7.95
L 42.35 7.95 42.35 19 46.25 19
Q 48.75 19 50.25 17.5 51.7 16 51.7 13.5 51.7 10.95 50.25 9.45 48.75 7.95 46.25 7.95
M 46.15 9.95
Q 47.7 9.95 48.55 10.9 49.4 11.85 49.4 13.5 49.4 15.15 48.55 16.05 47.7 17 46.15 17
L 44.6 17 44.6 9.95 46.15 9.95 Z"/>
</g>

<g id="SKYSCRAPER_160_X_600_PRODUCT_June_21_psd_Asset_OPTION_1_FRAME_3_Get_lost__Get_found__0_Layer0_0_MEMBER_16_FILL">
<path fill="#FFFFFF" stroke="none" d="
M 54.9 16.7
Q 54.5 17.1 54.5 17.7 54.5 18.3 54.9 18.75 55.3 19.15 55.9 19.15 56.5 19.15 56.9 18.75 57.3 18.3 57.3 17.7 57.3 17.1 56.9 16.7 56.5 16.25 55.9 16.25 55.3 16.25 54.9 16.7 Z"/>
</g>
</defs>

<g transform="matrix( 1, 0, 0, 1, -443,-380) ">
<g transform="matrix( 1, 0, 0, 1, 466,599) ">
<g transform="matrix( 1, 0, 0, 1, 0,0) ">
<g transform="matrix( 1.000518798828125, 0, 0, 0.9993896484375, 57.55,11.95) ">
<use xlink:href="#SKYSCRAPER_160_X_600_PRODUCT_June_21_psd_Asset_OPTION_1_FRAME_3_Get_lost__Get_found__0_Layer0_0_MEMBER_0_FILL"/>
</g>

<g transform="matrix( 1.000518798828125, 0, 0, 0.9993896484375, 57.55,11.95) ">
<use xlink:href="#SKYSCRAPER_160_X_600_PRODUCT_June_21_psd_Asset_OPTION_1_FRAME_3_Get_lost__Get_found__0_Layer0_0_MEMBER_1_FILL"/>
</g>

<g transform="matrix( 1.000518798828125, 0, 0, 0.9993896484375, 57.55,11.95) ">
<use xlink:href="#SKYSCRAPER_160_X_600_PRODUCT_June_21_psd_Asset_OPTION_1_FRAME_3_Get_lost__Get_found__0_Layer0_0_MEMBER_2_FILL"/>
</g>

<g transform="matrix( 1.000518798828125, 0, 0, 0.9993896484375, 57.55,11.95) ">
<use xlink:href="#SKYSCRAPER_160_X_600_PRODUCT_June_21_psd_Asset_OPTION_1_FRAME_3_Get_lost__Get_found__0_Layer0_0_MEMBER_3_FILL"/>
</g>

<g transform="matrix( 1.000518798828125, 0, 0, 0.9993896484375, 57.55,11.95) ">
<use xlink:href="#SKYSCRAPER_160_X_600_PRODUCT_June_21_psd_Asset_OPTION_1_FRAME_3_Get_lost__Get_found__0_Layer0_0_MEMBER_4_FILL"/>
</g>

<g transform="matrix( 1.000518798828125, 0, 0, 0.9993896484375, 57.55,11.95) ">
<use xlink:href="#SKYSCRAPER_160_X_600_PRODUCT_June_21_psd_Asset_OPTION_1_FRAME_3_Get_lost__Get_found__0_Layer0_0_MEMBER_5_FILL"/>
</g>

<g transform="matrix( 1.000518798828125, 0, 0, 0.9993896484375, 57.55,11.95) ">
<use xlink:href="#SKYSCRAPER_160_X_600_PRODUCT_June_21_psd_Asset_OPTION_1_FRAME_3_Get_lost__Get_found__0_Layer0_0_MEMBER_6_FILL"/>
</g>

<g transform="matrix( 1.000518798828125, 0, 0, 0.9993896484375, 57.55,11.95) ">
<use xlink:href="#SKYSCRAPER_160_X_600_PRODUCT_June_21_psd_Asset_OPTION_1_FRAME_3_Get_lost__Get_found__0_Layer0_0_MEMBER_7_FILL"/>
</g>

<g transform="matrix( 1.000518798828125, 0, 0, 0.9993896484375, 57.55,11.95) ">
<use xlink:href="#SKYSCRAPER_160_X_600_PRODUCT_June_21_psd_Asset_OPTION_1_FRAME_3_Get_lost__Get_found__0_Layer0_0_MEMBER_8_FILL"/>
</g>

<g transform="matrix( 1.000518798828125, 0, 0, 0.9993896484375, 57.55,11.95) ">
<use xlink:href="#SKYSCRAPER_160_X_600_PRODUCT_June_21_psd_Asset_OPTION_1_FRAME_3_Get_lost__Get_found__0_Layer0_0_MEMBER_9_FILL"/>
</g>

<g transform="matrix( 1.000518798828125, 0, 0, 0.9993896484375, 57.55,11.95) ">
<use xlink:href="#SKYSCRAPER_160_X_600_PRODUCT_June_21_psd_Asset_OPTION_1_FRAME_3_Get_lost__Get_found__0_Layer0_0_MEMBER_10_FILL"/>
</g>

<g transform="matrix( 1.000518798828125, 0, 0, 0.9993896484375, 57.55,11.95) ">
<use xlink:href="#SKYSCRAPER_160_X_600_PRODUCT_June_21_psd_Asset_OPTION_1_FRAME_3_Get_lost__Get_found__0_Layer0_0_MEMBER_11_FILL"/>
</g>

<g transform="matrix( 1.000518798828125, 0, 0, 0.9993896484375, 57.55,11.95) ">
<use xlink:href="#SKYSCRAPER_160_X_600_PRODUCT_June_21_psd_Asset_OPTION_1_FRAME_3_Get_lost__Get_found__0_Layer0_0_MEMBER_12_FILL"/>
</g>

<g transform="matrix( 1.000518798828125, 0, 0, 0.9993896484375, 57.55,11.95) ">
<use xlink:href="#SKYSCRAPER_160_X_600_PRODUCT_June_21_psd_Asset_OPTION_1_FRAME_3_Get_lost__Get_found__0_Layer0_0_MEMBER_13_FILL"/>
</g>

<g transform="matrix( 1.000518798828125, 0, 0, 0.9993896484375, 57.55,11.95) ">
<use xlink:href="#SKYSCRAPER_160_X_600_PRODUCT_June_21_psd_Asset_OPTION_1_FRAME_3_Get_lost__Get_found__0_Layer0_0_MEMBER_14_FILL"/>
</g>

<g transform="matrix( 1.000518798828125, 0, 0, 0.9993896484375, 57.55,11.95) ">
<use xlink:href="#SKYSCRAPER_160_X_600_PRODUCT_June_21_psd_Asset_OPTION_1_FRAME_3_Get_lost__Get_found__0_Layer0_0_MEMBER_15_FILL"/>
</g>

<g transform="matrix( 1.000518798828125, 0, 0, 0.9993896484375, 57.55,11.95) ">
<use xlink:href="#SKYSCRAPER_160_X_600_PRODUCT_June_21_psd_Asset_OPTION_1_FRAME_3_Get_lost__Get_found__0_Layer0_0_MEMBER_16_FILL"/>
</g>
</g>
</g>
</g>
</svg>
