
<svg xmlns="http://www.w3.org/2000/svg" version="1.1" xmlns:xlink="http://www.w3.org/1999/xlink" preserveAspectRatio="none" x="0px" y="0px" width="300px" height="250px" viewBox="0 0 300 250">
<defs>
<g id="Layer2_0_MEMBER_0_FILL">
<path fill="#373535" stroke="none" d="
M 96.05 96.05
Q 112.5 79.6 112.5 56.25 112.5 32.95 96.05 16.5 79.55 0 56.25 0 32.95 0 16.5 16.5 0 32.95 0 56.25 0 79.55 16.5 96.05 32.95 112.5 56.25 112.5 79.6 112.5 96.05 96.05 Z"/>
</g>

<g id="Layer2_0_MEMBER_1_FILL">
<path fill="#E23446" stroke="none" d="
M 94.45 94.45
Q 110.25 78.65 110.25 56.25 110.25 33.9 94.45 18.1 78.65 2.25 56.25 2.25 33.9 2.25 18.1 18.1 2.25 33.9 2.25 56.25 2.25 78.65 18.1 94.45 33.9 110.25 56.25 110.25 78.65 110.25 94.45 94.45 Z"/>
</g>

<g id="flash0_ai_Assets_0_Layer_1__Compound_Path__0_Layer0_0_FILL">
<path fill="#373535" stroke="none" d="
M 73.35 19.3
Q 73.1 13.3 69.85 9.15 66.45 4.8 59.55 2.5 52.5 0.15 41.7 0
L 39.4 0
Q 28.7 0.15 21.55 2.5 14.75 4.75 11.25 9.15 8 13.3 7.75 19.3 7.6 23.45 8.9 29 9.75 32.45 11.7 36.6 12.9 39.15 15.5 43.9 20.8 53.5 21.3 57.75 22 63.7 15.9 67.8 13.55 69.35 11.1 69.35 8 69.35 3.7 67.55 1.55 66.65 0 65.75
L 1.35 68.15
Q 8.45 78.75 18.5 78.75 22.85 78.75 27.55 76.7 32.8 74.35 35.75 69.1 38.9 63.8 37.95 58.7
L 37.95 58.6
Q 37.3 55.65 34.05 47.45 29.2 34.75 27.8 28.6 25.3 17.65 28.7 12.7 31.95 8.05 40.55 8.05 49.25 8.05 52.4 12.7 55.8 17.65 53.35 28.6 51.9 34.95 47.05 47.45 43.95 55.3 43.15 58.6
L 43.15 58.7
Q 42.3 63.9 45.35 69.1 48.4 74.35 53.55 76.7 58.35 78.75 62.6 78.75 67.55 78.75 71.95 76.05 76.3 73.35 79.75 68.15
L 81.1 65.75
Q 79.55 66.65 77.4 67.55 73.1 69.35 70.05 69.35 67.55 69.35 65.25 67.8 59.1 63.7 59.8 57.75 60.3 53.5 65.6 43.9 68.3 39 69.45 36.6 71.4 32.4 72.2 29 73.55 23.5 73.35 19.3
M 68.1 10.55
Q 70.55 13.6 71 18 71.5 22.4 70.05 28.5 69.25 31.7 67.35 35.75 66.25 38.05 63.65 42.8 60.9 47.75 59.85 50.1 58.1 54 57.65 57 56.55 64.75 64 69.65 66.85 71.6 70.05 71.6 72.45 71.6 75.15 70.4 69.65 76.5 62.6 76.5 58.65 76.5 54.5 74.65 50.05 72.65 47.35 68.05 44.65 63.45 45.35 59.1 46.05 56.15 49.15 48.25 54.15 35.3 55.6 28.75 58.2 17.15 54.3 11.45 50.45 5.8 40.55 5.8 30.7 5.8 26.85 11.45 22.95 17.15 25.5 28.75 26.95 35.3 31.95 48.25 35.05 56.15 35.75 59.1 36.45 63.45 33.75 68.05 31.1 72.65 26.65 74.65 22.45 76.5 18.5 76.5 11.45 76.5 5.95 70.45 8.75 71.6 11.1 71.6 14.25 71.6 17.15 69.65 24.55 64.75 23.45 57 23.05 54 21.3 50.1 20.25 47.75 17.5 42.8 14.95 38.2 13.75 35.75 11.85 31.75 11.1 28.5 8.25 16.6 13.05 10.55 16.1 6.7 22.25 4.65 29.3 2.35 40.55 2.25
L 40.6 2.25
Q 51.8 2.35 58.85 4.65 65.05 6.65 68.1 10.55 Z"/>
</g>

<g id="Layer2_0_MEMBER_3_MEMBER_0_FILL">
<path fill="#FFFFFF" stroke="none" d="
M 86.7 32.25
Q 86.25 27.85 83.8 24.8 80.75 20.9 74.55 18.9 67.5 16.6 56.3 16.5
L 56.25 16.5
Q 45 16.6 37.95 18.9 31.8 20.95 28.75 24.8 23.95 30.85 26.8 42.75 27.55 46 29.45 50 30.65 52.45 33.2 57.05 35.95 62 37 64.35 38.75 68.25 39.15 71.25 40.25 79 32.85 83.9 29.95 85.85 26.8 85.85 24.45 85.85 21.65 84.7 27.15 90.75 34.2 90.75 38.15 90.75 42.35 88.9 46.8 86.9 49.45 82.3 52.15 77.7 51.45 73.35 50.75 70.4 47.65 62.5 42.65 49.55 41.2 43 38.65 31.4 42.55 25.7 46.4 20.05 56.25 20.05 66.15 20.05 70 25.7 73.9 31.4 71.3 43 70.35 47.3 68.4 52.9 67.25 56.25 64.85 62.5 61.75 70.4 61.05 73.35 60.35 77.7 63.05 82.3 65.75 86.9 70.2 88.9 74.35 90.75 78.3 90.75 85.35 90.75 90.85 84.65 88.15 85.85 85.75 85.85 82.55 85.85 79.7 83.9 72.25 79 73.35 71.25 73.8 68.25 75.55 64.35 76.6 62 79.35 57.05 81.95 52.3 83.05 50 84.95 45.95 85.75 42.75 87.2 36.65 86.7 32.25 Z"/>
</g>

<g id="flash0_ai_Assets_0_Layer_1__Compound_Path__0_0_Layer0_0_FILL">
<path fill="#FFFFFF" stroke="none" d="
M 65.05 15.75
Q 64.6 11.35 62.15 8.3 59.1 4.4 52.9 2.4 45.85 0.1 34.65 0
L 34.6 0
Q 23.35 0.1 16.3 2.4 10.15 4.45 7.1 8.3 2.3 14.35 5.15 26.25 5.9 29.5 7.8 33.5 9 35.95 11.55 40.55 14.3 45.5 15.35 47.85 17.1 51.75 17.5 54.75 18.6 62.5 11.2 67.4 8.3 69.35 5.15 69.35 2.8 69.35 0 68.2 5.5 74.25 12.55 74.25 16.5 74.25 20.7 72.4 25.15 70.4 27.8 65.8 30.5 61.2 29.8 56.85 29.1 53.9 26 46 21 33.05 19.55 26.5 17 14.9 20.9 9.2 24.75 3.55 34.6 3.55 44.5 3.55 48.35 9.2 52.25 14.9 49.65 26.5 48.75 30.8 46.8 36.4 45.75 39.45 43.2 46 40.1 53.9 39.4 56.85 38.7 61.2 41.4 65.8 44.1 70.4 48.55 72.4 52.7 74.25 56.65 74.25 63.7 74.25 69.2 68.15 66.5 69.35 64.1 69.35 60.9 69.35 58.05 67.4 50.6 62.5 51.7 54.75 52.15 51.75 53.9 47.85 54.95 45.5 57.7 40.55 60.3 35.8 61.4 33.5 63.3 29.45 64.1 26.25 65.55 20.15 65.05 15.75 Z"/>
</g>
</defs>

<g transform="matrix( 0.3315277099609375, 0, 0, 0.3315277099609375, 132.2,181.5) ">
<use xlink:href="#Layer2_0_MEMBER_0_FILL"/>
</g>

<g transform="matrix( 0.3315277099609375, 0, 0, 0.3315277099609375, 132.2,181.5) ">
<use xlink:href="#Layer2_0_MEMBER_1_FILL"/>
</g>

<g transform="matrix( 0.3315277099609375, 0, 0, 0.3315277099609375, 137.55,186.4) ">
<g transform="matrix( 1, 0, 0, 1, 0,0) ">
<use xlink:href="#flash0_ai_Assets_0_Layer_1__Compound_Path__0_Layer0_0_FILL"/>
</g>
</g>

<g transform="matrix( 0.3315277099609375, 0, 0, 0.3315277099609375, 132.2,181.5) ">
<use xlink:href="#Layer2_0_MEMBER_3_MEMBER_0_FILL"/>
</g>

<g transform="matrix( 0.3315277099609375, 0, 0, 0.3315277099609375, 139.45,187.15) ">
<g transform="matrix( 1, 0, 0, 1, 0,0) ">
<use xlink:href="#flash0_ai_Assets_0_Layer_1__Compound_Path__0_0_Layer0_0_FILL"/>
</g>
</g>
</svg>
