
<svg xmlns="http://www.w3.org/2000/svg" version="1.1" xmlns:xlink="http://www.w3.org/1999/xlink" preserveAspectRatio="none" x="0px" y="0px" width="300px" height="600px" viewBox="0 0 300 600">
<defs>
<g id="lulu_run_ss_300x600_product_psd_Asset_1_FRAME_1_The_Speed_Short_copy_0_Layer0_0_MEMBER_0_FILL">
<path fill="#FFFFFF" stroke="none" d="
M -51.8 -9.2
L -51.8 -7.85 -48.75 -7.85 -48.75 0 -47.15 0 -47.15 -7.85 -44.1 -7.85 -44.1 -9.2 -51.8 -9.2 Z"/>
</g>

<g id="lulu_run_ss_300x600_product_psd_Asset_1_FRAME_1_The_Speed_Short_copy_0_Layer0_0_MEMBER_1_FILL">
<path fill="#FFFFFF" stroke="none" d="
M -40.85 -9.75
L -42.35 -9.75 -42.35 0 -40.85 0 -40.85 -4.4
Q -40.6 -5.45 -39.45 -5.45 -38.2 -5.45 -38.2 -4.1
L -38.2 0 -36.7 0 -36.7 -4.35
Q -36.7 -5.45 -37.3 -6.1 -37.95 -6.8 -39.05 -6.8 -40.2 -6.8 -40.85 -6.05
L -40.85 -9.75 Z"/>
</g>

<g id="lulu_run_ss_300x600_product_psd_Asset_1_FRAME_1_The_Speed_Short_copy_0_Layer0_0_MEMBER_2_FILL">
<path fill="#FFFFFF" stroke="none" d="
M -35 -3.3
Q -35 -1.75 -34.15 -0.8 -33.25 0.15 -31.85 0.15 -29.45 0.15 -29.05 -2.05
L -30.45 -2.05
Q -30.65 -1.1 -31.85 -1.1 -33.45 -1.1 -33.55 -3
L -29 -3 -29 -3.5
Q -29 -5 -29.75 -5.9 -30.5 -6.8 -31.9 -6.8 -33.25 -6.8 -34.1 -5.8 -35 -4.8 -35 -3.3
M -33.5 -4.1
Q -33.2 -5.55 -31.9 -5.55 -30.5 -5.55 -30.5 -4.1
L -33.5 -4.1 Z"/>
</g>

<g id="lulu_run_ss_300x600_product_psd_Asset_1_FRAME_1_The_Speed_Short_copy_0_Layer0_0_MEMBER_3_FILL">
<path fill="#FFFFFF" stroke="none" d="
M -23.05 -8.6
Q -23.9 -7.8 -23.9 -6.65 -23.9 -4.7 -21.6 -4.15
L -20.05 -3.8
Q -18.75 -3.45 -18.75 -2.55 -18.75 -1.9 -19.25 -1.55 -19.7 -1.15 -20.5 -1.15 -22.15 -1.15 -22.6 -2.55
L -24.2 -2.55
Q -23.95 -1.3 -22.95 -0.55 -21.95 0.15 -20.5 0.15 -19.05 0.15 -18.15 -0.6 -17.25 -1.35 -17.25 -2.65 -17.25 -4.65 -19.6 -5.2
L -21.2 -5.55
Q -22.45 -5.85 -22.45 -6.75 -22.45 -7.35 -21.95 -7.7 -21.5 -8.05 -20.75 -8.05 -19.3 -8.05 -18.85 -6.8
L -17.3 -6.8
Q -17.8 -9.35 -20.8 -9.35 -22.15 -9.35 -23.05 -8.6 Z"/>
</g>

<g id="lulu_run_ss_300x600_product_psd_Asset_1_FRAME_1_The_Speed_Short_copy_0_Layer0_0_MEMBER_4_FILL">
<path fill="#FFFFFF" stroke="none" d="
M -12.3 -6.8
Q -13.35 -6.8 -13.95 -6.1
L -13.95 -6.65 -15.45 -6.65 -15.45 2.55 -13.95 2.55 -13.95 -0.55
Q -13.35 0.15 -12.3 0.15 -10.9 0.15 -10 -0.9 -9.2 -1.85 -9.2 -3.35 -9.2 -4.8 -10 -5.75 -10.9 -6.8 -12.3 -6.8
M -13.95 -2.05
L -13.95 -4.6
Q -13.5 -5.45 -12.55 -5.45 -11.7 -5.45 -11.2 -4.85 -10.7 -4.25 -10.7 -3.35 -10.7 -2.4 -11.2 -1.8 -11.7 -1.2 -12.55 -1.2 -13.5 -1.2 -13.95 -2.05 Z"/>
</g>

<g id="lulu_run_ss_300x600_product_psd_Asset_1_FRAME_1_The_Speed_Short_copy_0_Layer0_0_MEMBER_5_FILL">
<path fill="#FFFFFF" stroke="none" d="
M -6.95 -5.8
Q -7.85 -4.8 -7.85 -3.3 -7.85 -1.75 -6.95 -0.8 -6.1 0.15 -4.7 0.15 -3.5 0.15 -2.75 -0.45 -2.05 -1.05 -1.9 -2.05
L -3.25 -2.05
Q -3.55 -1.1 -4.7 -1.1 -6.25 -1.1 -6.35 -3
L -1.8 -3 -1.8 -3.5
Q -1.8 -5 -2.55 -5.9 -3.35 -6.8 -4.7 -6.8 -6.1 -6.8 -6.95 -5.8
M -3.65 -5.1
Q -3.3 -4.7 -3.3 -4.1
L -6.3 -4.1
Q -6.05 -5.55 -4.7 -5.55 -4.05 -5.55 -3.65 -5.1 Z"/>
</g>

<g id="lulu_run_ss_300x600_product_psd_Asset_1_FRAME_1_The_Speed_Short_copy_0_Layer0_0_MEMBER_6_FILL">
<path fill="#FFFFFF" stroke="none" d="
M 4.1 -2.05
Q 3.8 -1.1 2.65 -1.1 1.1 -1.1 1 -3
L 5.55 -3 5.55 -3.5
Q 5.55 -5 4.8 -5.9 4 -6.8 2.65 -6.8 1.25 -6.8 0.4 -5.8 -0.5 -4.8 -0.5 -3.3 -0.5 -1.75 0.4 -0.8 1.25 0.15 2.65 0.15 3.85 0.15 4.6 -0.45 5.3 -1.05 5.45 -2.05
L 4.1 -2.05
M 1.05 -4.1
Q 1.3 -5.55 2.65 -5.55 3.3 -5.55 3.7 -5.1 4.05 -4.7 4.05 -4.1
L 1.05 -4.1 Z"/>
</g>

<g id="lulu_run_ss_300x600_product_psd_Asset_1_FRAME_1_The_Speed_Short_copy_0_Layer0_0_MEMBER_7_FILL">
<path fill="#FFFFFF" stroke="none" d="
M 6.85 -3.35
Q 6.85 -1.85 7.65 -0.85 8.55 0.15 9.95 0.15 11.05 0.15 11.65 -0.55
L 11.65 0 13.15 0 13.15 -9.75 11.65 -9.75 11.65 -6.1
Q 11.05 -6.8 9.95 -6.8 8.55 -6.8 7.65 -5.8 6.85 -4.8 6.85 -3.35
M 8.35 -3.35
Q 8.35 -4.25 8.85 -4.85 9.35 -5.45 10.2 -5.45 11.25 -5.45 11.65 -4.6
L 11.65 -2.05
Q 11.25 -1.2 10.2 -1.2 9.35 -1.2 8.85 -1.8 8.35 -2.4 8.35 -3.35 Z"/>
</g>

<g id="lulu_run_ss_300x600_product_psd_Asset_1_FRAME_1_The_Speed_Short_copy_0_Layer0_0_MEMBER_8_FILL">
<path fill="#FFFFFF" stroke="none" d="
M 20.05 -2.55
L 18.45 -2.55
Q 18.7 -1.3 19.65 -0.55 20.65 0.15 22.1 0.15 23.55 0.15 24.45 -0.6 25.4 -1.35 25.4 -2.65 25.4 -4.6 23 -5.2
L 21.4 -5.55
Q 20.2 -5.85 20.2 -6.75 20.2 -8.05 21.85 -8.05 23.35 -8.05 23.8 -6.8
L 25.35 -6.8
Q 24.8 -9.35 21.85 -9.35 20.45 -9.35 19.6 -8.6 18.7 -7.8 18.7 -6.65 18.7 -4.7 21 -4.15
L 22.55 -3.8
Q 23.9 -3.45 23.9 -2.55 23.9 -1.15 22.1 -1.15 20.5 -1.15 20.05 -2.55 Z"/>
</g>

<g id="lulu_run_ss_300x600_product_psd_Asset_1_FRAME_1_The_Speed_Short_copy_0_Layer0_0_MEMBER_9_FILL">
<path fill="#FFFFFF" stroke="none" d="
M 28.75 -9.75
L 27.25 -9.75 27.25 0 28.75 0 28.75 -4.4
Q 29 -5.45 30.15 -5.45 31.4 -5.45 31.4 -4.1
L 31.4 0 32.9 0 32.9 -4.35
Q 32.9 -5.45 32.3 -6.1 31.65 -6.8 30.55 -6.8 29.4 -6.8 28.75 -6.05
L 28.75 -9.75 Z"/>
</g>

<g id="lulu_run_ss_300x600_product_psd_Asset_1_FRAME_1_The_Speed_Short_copy_0_Layer0_0_MEMBER_10_FILL">
<path fill="#FFFFFF" stroke="none" d="
M 40 -5.8
Q 39.15 -6.8 37.75 -6.8 36.35 -6.8 35.45 -5.8 34.55 -4.85 34.55 -3.35 34.55 -1.8 35.45 -0.85 36.35 0.15 37.75 0.15 39.15 0.15 40 -0.85 40.9 -1.8 40.9 -3.35 40.9 -4.85 40 -5.8
M 38.95 -4.9
Q 39.4 -4.3 39.4 -3.35 39.4 -2.35 38.95 -1.75 38.55 -1.15 37.75 -1.15 36.05 -1.15 36.05 -3.35 36.05 -4.3 36.5 -4.9 36.95 -5.5 37.75 -5.5 38.5 -5.5 38.95 -4.9 Z"/>
</g>

<g id="lulu_run_ss_300x600_product_psd_Asset_1_FRAME_1_The_Speed_Short_copy_0_Layer0_0_MEMBER_11_FILL">
<path fill="#FFFFFF" stroke="none" d="
M 46.4 -5.15
L 46.4 -6.7 45.65 -6.8
Q 44.6 -6.8 44.15 -5.95
L 44.15 -6.65 42.65 -6.65 42.65 0 44.15 0 44.15 -4.3
Q 44.4 -5.35 45.5 -5.35 46.15 -5.35 46.4 -5.15 Z"/>
</g>

<g id="lulu_run_ss_300x600_product_psd_Asset_1_FRAME_1_The_Speed_Short_copy_0_Layer0_0_MEMBER_12_FILL">
<path fill="#FFFFFF" stroke="none" d="
M 48.5 -5.4
L 48.5 -1.8
Q 48.5 0.15 50.5 0.15 51.25 0.15 51.65 -0.1
L 51.65 -1.45
Q 51.3 -1.2 50.8 -1.2 50 -1.2 50 -1.95
L 50 -5.4 51.5 -5.4 51.5 -6.65 50 -6.65 50 -8.45 48.5 -8.45 48.5 -6.65 47.45 -6.65 47.45 -5.4 48.5 -5.4 Z"/>
</g>

<g id="lulu_run_ss_300x600_product_psd_Asset_1_FRAME_1_SLIM_PERFORMANCE_FIT_0_Layer0_0_MEMBER_0_FILL">
<path fill="#FFFFFF" stroke="none" d="
M -40.6 -7
L -45.9 -7
Q -45.25 -3.5 -42.55 -1.55 -39.85 0.4 -35.7 0.4 -31.7 0.4 -29.2 -1.65 -26.6 -3.75 -26.6 -7.25 -26.6 -12.7 -33 -14.15
L -37.5 -15.2
Q -40.25 -15.85 -40.25 -17.9 -40.25 -19.2 -39.2 -20 -38.15 -20.75 -36.4 -20.75 -32.8 -20.75 -31.85 -17.85
L -26.8 -17.85
Q -27.4 -21.1 -29.8 -22.95 -32.35 -24.95 -36.4 -24.95 -40.3 -24.95 -42.75 -22.85 -45.25 -20.75 -45.25 -17.4 -45.25 -12.1 -39 -10.7
L -34.6 -9.7
Q -31.6 -9 -31.6 -6.9 -31.6 -5.45 -32.75 -4.65 -33.85 -3.85 -35.75 -3.85 -39.65 -3.85 -40.6 -7 Z"/>
</g>

<g id="lulu_run_ss_300x600_product_psd_Asset_1_FRAME_1_SLIM_PERFORMANCE_FIT_0_Layer0_0_MEMBER_1_FILL">
<path fill="#FFFFFF" stroke="none" d="
M -13.9 -24.55
L -19 -24.55 -19 0 -2.45 0 -2.45 -4.5 -13.9 -4.5 -13.9 -24.55 Z"/>
</g>

<g id="lulu_run_ss_300x600_product_psd_Asset_1_FRAME_1_SLIM_PERFORMANCE_FIT_0_Layer0_0_MEMBER_2_FILL">
<path fill="#FFFFFF" stroke="none" d="
M 10.4 -24.55
L 5.25 -24.55 5.25 0 10.4 0 10.4 -24.55 Z"/>
</g>

<g id="lulu_run_ss_300x600_product_psd_Asset_1_FRAME_1_SLIM_PERFORMANCE_FIT_0_Layer0_0_MEMBER_3_FILL">
<path fill="#FFFFFF" stroke="none" d="
M 25.15 -24.55
L 19.05 -24.55 19.05 0 23.85 0 23.85 -16.05 29.95 0 33.4 0 39.4 -16.05 39.4 0 44.2 0 44.2 -24.55 38.2 -24.55 31.7 -7.25 25.15 -24.55 Z"/>
</g>

<g id="lulu_run_ss_300x600_product_psd_Asset_1_FRAME_1_SLIM_PERFORMANCE_FIT_0_Layer0_0_MEMBER_4_FILL">
<path fill="#FFFFFF" stroke="none" d="
M -130.4 21.5
Q -132.7 19.45 -136.7 19.45
L -146.7 19.45 -146.7 44 -141.6 44 -141.6 35.5 -136.7 35.5
Q -132.7 35.5 -130.4 33.45 -128.05 31.35 -128.05 27.5 -128.05 23.65 -130.4 21.5
M -141.6 23.8
L -137 23.8
Q -135.1 23.8 -134.05 24.85 -133.1 25.8 -133.1 27.5 -133.1 29.15 -134.05 30.1 -135.1 31.1 -137 31.1
L -141.6 31.1 -141.6 23.8 Z"/>
</g>

<g id="lulu_run_ss_300x600_product_psd_Asset_1_FRAME_1_SLIM_PERFORMANCE_FIT_0_Layer0_0_MEMBER_5_FILL">
<path fill="#FFFFFF" stroke="none" d="
M -103.95 19.45
L -120.6 19.45 -120.6 44 -103.95 44 -103.95 39.5 -115.6 39.5 -115.6 33.65 -105 33.65 -105 29.3 -115.6 29.3 -115.6 23.9 -103.95 23.9 -103.95 19.45 Z"/>
</g>

<g id="lulu_run_ss_300x600_product_psd_Asset_1_FRAME_1_SLIM_PERFORMANCE_FIT_0_Layer0_0_MEMBER_6_FILL">
<path fill="#FFFFFF" stroke="none" d="
M -77.25 27.25
Q -77.25 23.55 -79.6 21.45 -81.9 19.45 -85.85 19.45
L -96 19.45 -96 44 -90.9 44 -90.9 34.85 -88.2 34.85 -82.15 44 -76.4 44 -82.85 34.5
Q -80.2 33.85 -78.75 32 -77.25 30.15 -77.25 27.25
M -90.9 23.8
L -86.2 23.8
Q -84.3 23.8 -83.25 24.75 -82.3 25.65 -82.3 27.25 -82.3 28.85 -83.25 29.7 -84.3 30.65 -86.2 30.65
L -90.9 30.65 -90.9 23.8 Z"/>
</g>

<g id="lulu_run_ss_300x600_product_psd_Asset_1_FRAME_1_SLIM_PERFORMANCE_FIT_0_Layer0_0_MEMBER_7_FILL">
<path fill="#FFFFFF" stroke="none" d="
M -53.1 23.9
L -53.1 19.45 -69.45 19.45 -69.45 44 -64.4 44 -64.4 34.6 -53.95 34.6 -53.95 30.15 -64.4 30.15 -64.4 23.9 -53.1 23.9 Z"/>
</g>

<g id="lulu_run_ss_300x600_product_psd_Asset_1_FRAME_1_SLIM_PERFORMANCE_FIT_0_Layer0_0_MEMBER_8_FILL">
<path fill="#FFFFFF" stroke="none" d="
M -26.75 22.6
Q -30 19.05 -35.15 19.05 -40.25 19.05 -43.5 22.6 -46.75 26.15 -46.75 31.7 -46.75 37.25 -43.5 40.8 -40.25 44.4 -35.15 44.4 -30.05 44.4 -26.75 40.8 -23.5 37.25 -23.5 31.7 -23.5 26.15 -26.75 22.6
M -30.4 25.85
Q -28.65 28.1 -28.65 31.7 -28.65 35.35 -30.4 37.6 -32.2 39.85 -35.15 39.85 -38 39.85 -39.8 37.6 -41.55 35.3 -41.55 31.7 -41.55 28.1 -39.8 25.85 -38.05 23.6 -35.15 23.6 -32.2 23.6 -30.4 25.85 Z"/>
</g>

<g id="lulu_run_ss_300x600_product_psd_Asset_1_FRAME_1_SLIM_PERFORMANCE_FIT_0_Layer0_0_MEMBER_9_FILL">
<path fill="#FFFFFF" stroke="none" d="
M 2.8 27.25
Q 2.8 23.55 0.45 21.45 -1.85 19.45 -5.8 19.45
L -15.95 19.45 -15.95 44 -10.85 44 -10.85 34.85 -8.2 34.85 -2.1 44 3.65 44 -2.8 34.5
Q -0.2 33.85 1.3 32 2.8 30.1 2.8 27.25
M -10.85 23.8
L -6.15 23.8
Q -4.25 23.8 -3.25 24.75 -2.25 25.65 -2.25 27.25 -2.25 28.8 -3.25 29.7 -4.25 30.65 -6.15 30.65
L -10.85 30.65 -10.85 23.8 Z"/>
</g>

<g id="lulu_run_ss_300x600_product_psd_Asset_1_FRAME_1_SLIM_PERFORMANCE_FIT_0_Layer0_0_MEMBER_10_FILL">
<path fill="#FFFFFF" stroke="none" d="
M 35.75 19.45
L 29.75 19.45 23.2 36.75 16.65 19.45 10.6 19.45 10.6 44 15.4 44 15.4 27.95 21.45 44 24.95 44 30.9 27.95 30.9 44 35.75 44 35.75 19.45 Z"/>
</g>

<g id="lulu_run_ss_300x600_product_psd_Asset_1_FRAME_1_SLIM_PERFORMANCE_FIT_0_Layer0_0_MEMBER_11_FILL">
<path fill="#FFFFFF" stroke="none" d="
M 57.2 19.45
L 52.1 19.45 42.7 44 47.8 44 50 38.1 59.2 38.1 61.4 44 66.6 44 57.2 19.45
M 51.6 33.75
L 54.6 25.6 57.6 33.75 51.6 33.75 Z"/>
</g>

<g id="lulu_run_ss_300x600_product_psd_Asset_1_FRAME_1_SLIM_PERFORMANCE_FIT_0_Layer0_0_MEMBER_12_FILL">
<path fill="#FFFFFF" stroke="none" d="
M 94.1 44
L 94.1 19.45 89.2 19.45 89.2 34.95 78.35 19.45 73.55 19.45 73.55 44 78.45 44 78.45 27.65 90.05 44 94.1 44 Z"/>
</g>

<g id="lulu_run_ss_300x600_product_psd_Asset_1_FRAME_1_SLIM_PERFORMANCE_FIT_0_Layer0_0_MEMBER_13_FILL">
<path fill="#FFFFFF" stroke="none" d="
M 113.05 19.05
Q 108.1 19.05 104.85 22.55 101.6 26.1 101.6 31.7 101.6 37.3 104.85 40.9 108.1 44.4 113.05 44.4 117.3 44.4 120 42.1 122.6 39.9 123.35 36.05
L 118.25 36.05
Q 116.8 39.85 113.05 39.85 110.2 39.85 108.45 37.5 106.8 35.25 106.8 31.7 106.8 28.15 108.45 25.9 110.2 23.6 113.05 23.6 116.85 23.6 118.25 27.35
L 123.35 27.35
Q 122.6 23.55 120 21.35 117.3 19.05 113.05 19.05 Z"/>
</g>

<g id="lulu_run_ss_300x600_product_psd_Asset_1_FRAME_1_SLIM_PERFORMANCE_FIT_0_Layer0_0_MEMBER_14_FILL">
<path fill="#FFFFFF" stroke="none" d="
M 147.45 23.9
L 147.45 19.45 130.8 19.45 130.8 44 147.45 44 147.45 39.5 135.8 39.5 135.8 33.65 146.4 33.65 146.4 29.3 135.8 29.3 135.8 23.9 147.45 23.9 Z"/>
</g>

<g id="lulu_run_ss_300x600_product_psd_Asset_1_FRAME_1_SLIM_PERFORMANCE_FIT_0_Layer0_0_MEMBER_15_FILL">
<path fill="#FFFFFF" stroke="none" d="
M -11.7 67.9
L -11.7 63.45 -28.05 63.45 -28.05 88 -23 88 -23 78.6 -12.55 78.6 -12.55 74.15 -23 74.15 -23 67.9 -11.7 67.9 Z"/>
</g>

<g id="lulu_run_ss_300x600_product_psd_Asset_1_FRAME_1_SLIM_PERFORMANCE_FIT_0_Layer0_0_MEMBER_16_FILL">
<path fill="#FFFFFF" stroke="none" d="
M 1.1 88
L 1.1 63.45 -4 63.45 -4 88 1.1 88 Z"/>
</g>

<g id="lulu_run_ss_300x600_product_psd_Asset_1_FRAME_1_SLIM_PERFORMANCE_FIT_0_Layer0_0_MEMBER_17_FILL">
<path fill="#FFFFFF" stroke="none" d="
M 8.45 63.45
L 8.45 67.9 16.35 67.9 16.35 88 21.5 88 21.5 67.9 29.4 67.9 29.4 63.45 8.45 63.45 Z"/>
</g>
</defs>

<g transform="matrix( 1, 0, 0, 1, -482,-83) ">
<g transform="matrix( 1, 0, 0, 1, 557,642) ">
<g transform="matrix( 1.4461212158203125, 0, 0, 1.4495697021484375, 75.05,15.15) ">
<use xlink:href="#lulu_run_ss_300x600_product_psd_Asset_1_FRAME_1_The_Speed_Short_copy_0_Layer0_0_MEMBER_0_FILL"/>
</g>

<g transform="matrix( 1.4461212158203125, 0, 0, 1.4495697021484375, 75.05,15.15) ">
<use xlink:href="#lulu_run_ss_300x600_product_psd_Asset_1_FRAME_1_The_Speed_Short_copy_0_Layer0_0_MEMBER_1_FILL"/>
</g>

<g transform="matrix( 1.4461212158203125, 0, 0, 1.4495697021484375, 75.05,15.15) ">
<use xlink:href="#lulu_run_ss_300x600_product_psd_Asset_1_FRAME_1_The_Speed_Short_copy_0_Layer0_0_MEMBER_2_FILL"/>
</g>

<g transform="matrix( 1.4461212158203125, 0, 0, 1.4495697021484375, 75.05,15.15) ">
<use xlink:href="#lulu_run_ss_300x600_product_psd_Asset_1_FRAME_1_The_Speed_Short_copy_0_Layer0_0_MEMBER_3_FILL"/>
</g>

<g transform="matrix( 1.4461212158203125, 0, 0, 1.4495697021484375, 75.05,15.15) ">
<use xlink:href="#lulu_run_ss_300x600_product_psd_Asset_1_FRAME_1_The_Speed_Short_copy_0_Layer0_0_MEMBER_4_FILL"/>
</g>

<g transform="matrix( 1.4461212158203125, 0, 0, 1.4495697021484375, 75.05,15.15) ">
<use xlink:href="#lulu_run_ss_300x600_product_psd_Asset_1_FRAME_1_The_Speed_Short_copy_0_Layer0_0_MEMBER_5_FILL"/>
</g>

<g transform="matrix( 1.4461212158203125, 0, 0, 1.4495697021484375, 75.05,15.15) ">
<use xlink:href="#lulu_run_ss_300x600_product_psd_Asset_1_FRAME_1_The_Speed_Short_copy_0_Layer0_0_MEMBER_6_FILL"/>
</g>

<g transform="matrix( 1.4461212158203125, 0, 0, 1.4495697021484375, 75.05,15.15) ">
<use xlink:href="#lulu_run_ss_300x600_product_psd_Asset_1_FRAME_1_The_Speed_Short_copy_0_Layer0_0_MEMBER_7_FILL"/>
</g>

<g transform="matrix( 1.4461212158203125, 0, 0, 1.4495697021484375, 75.05,15.15) ">
<use xlink:href="#lulu_run_ss_300x600_product_psd_Asset_1_FRAME_1_The_Speed_Short_copy_0_Layer0_0_MEMBER_8_FILL"/>
</g>

<g transform="matrix( 1.4461212158203125, 0, 0, 1.4495697021484375, 75.05,15.15) ">
<use xlink:href="#lulu_run_ss_300x600_product_psd_Asset_1_FRAME_1_The_Speed_Short_copy_0_Layer0_0_MEMBER_9_FILL"/>
</g>

<g transform="matrix( 1.4461212158203125, 0, 0, 1.4495697021484375, 75.05,15.15) ">
<use xlink:href="#lulu_run_ss_300x600_product_psd_Asset_1_FRAME_1_The_Speed_Short_copy_0_Layer0_0_MEMBER_10_FILL"/>
</g>

<g transform="matrix( 1.4461212158203125, 0, 0, 1.4495697021484375, 75.05,15.15) ">
<use xlink:href="#lulu_run_ss_300x600_product_psd_Asset_1_FRAME_1_The_Speed_Short_copy_0_Layer0_0_MEMBER_11_FILL"/>
</g>

<g transform="matrix( 1.4461212158203125, 0, 0, 1.4495697021484375, 75.05,15.15) ">
<use xlink:href="#lulu_run_ss_300x600_product_psd_Asset_1_FRAME_1_The_Speed_Short_copy_0_Layer0_0_MEMBER_12_FILL"/>
</g>
</g>

<g transform="matrix( 1, 0, 0, 1, 485,314) ">
<g transform="matrix( 1, 0, 0, 1, 146.85,25.35) ">
<use xlink:href="#lulu_run_ss_300x600_product_psd_Asset_1_FRAME_1_SLIM_PERFORMANCE_FIT_0_Layer0_0_MEMBER_0_FILL"/>
</g>

<g transform="matrix( 1, 0, 0, 1, 146.85,25.35) ">
<use xlink:href="#lulu_run_ss_300x600_product_psd_Asset_1_FRAME_1_SLIM_PERFORMANCE_FIT_0_Layer0_0_MEMBER_1_FILL"/>
</g>

<g transform="matrix( 1, 0, 0, 1, 146.85,25.35) ">
<use xlink:href="#lulu_run_ss_300x600_product_psd_Asset_1_FRAME_1_SLIM_PERFORMANCE_FIT_0_Layer0_0_MEMBER_2_FILL"/>
</g>

<g transform="matrix( 1, 0, 0, 1, 146.85,25.35) ">
<use xlink:href="#lulu_run_ss_300x600_product_psd_Asset_1_FRAME_1_SLIM_PERFORMANCE_FIT_0_Layer0_0_MEMBER_3_FILL"/>
</g>

<g transform="matrix( 1, 0, 0, 1, 146.85,25.35) ">
<use xlink:href="#lulu_run_ss_300x600_product_psd_Asset_1_FRAME_1_SLIM_PERFORMANCE_FIT_0_Layer0_0_MEMBER_4_FILL"/>
</g>

<g transform="matrix( 1, 0, 0, 1, 146.85,25.35) ">
<use xlink:href="#lulu_run_ss_300x600_product_psd_Asset_1_FRAME_1_SLIM_PERFORMANCE_FIT_0_Layer0_0_MEMBER_5_FILL"/>
</g>

<g transform="matrix( 1, 0, 0, 1, 146.85,25.35) ">
<use xlink:href="#lulu_run_ss_300x600_product_psd_Asset_1_FRAME_1_SLIM_PERFORMANCE_FIT_0_Layer0_0_MEMBER_6_FILL"/>
</g>

<g transform="matrix( 1, 0, 0, 1, 146.85,25.35) ">
<use xlink:href="#lulu_run_ss_300x600_product_psd_Asset_1_FRAME_1_SLIM_PERFORMANCE_FIT_0_Layer0_0_MEMBER_7_FILL"/>
</g>

<g transform="matrix( 1, 0, 0, 1, 146.85,25.35) ">
<use xlink:href="#lulu_run_ss_300x600_product_psd_Asset_1_FRAME_1_SLIM_PERFORMANCE_FIT_0_Layer0_0_MEMBER_8_FILL"/>
</g>

<g transform="matrix( 1, 0, 0, 1, 146.85,25.35) ">
<use xlink:href="#lulu_run_ss_300x600_product_psd_Asset_1_FRAME_1_SLIM_PERFORMANCE_FIT_0_Layer0_0_MEMBER_9_FILL"/>
</g>

<g transform="matrix( 1, 0, 0, 1, 146.85,25.35) ">
<use xlink:href="#lulu_run_ss_300x600_product_psd_Asset_1_FRAME_1_SLIM_PERFORMANCE_FIT_0_Layer0_0_MEMBER_10_FILL"/>
</g>

<g transform="matrix( 1, 0, 0, 1, 146.85,25.35) ">
<use xlink:href="#lulu_run_ss_300x600_product_psd_Asset_1_FRAME_1_SLIM_PERFORMANCE_FIT_0_Layer0_0_MEMBER_11_FILL"/>
</g>

<g transform="matrix( 1, 0, 0, 1, 146.85,25.35) ">
<use xlink:href="#lulu_run_ss_300x600_product_psd_Asset_1_FRAME_1_SLIM_PERFORMANCE_FIT_0_Layer0_0_MEMBER_12_FILL"/>
</g>

<g transform="matrix( 1, 0, 0, 1, 146.85,25.35) ">
<use xlink:href="#lulu_run_ss_300x600_product_psd_Asset_1_FRAME_1_SLIM_PERFORMANCE_FIT_0_Layer0_0_MEMBER_13_FILL"/>
</g>

<g transform="matrix( 1, 0, 0, 1, 146.85,25.35) ">
<use xlink:href="#lulu_run_ss_300x600_product_psd_Asset_1_FRAME_1_SLIM_PERFORMANCE_FIT_0_Layer0_0_MEMBER_14_FILL"/>
</g>

<g transform="matrix( 1, 0, 0, 1, 146.85,25.35) ">
<use xlink:href="#lulu_run_ss_300x600_product_psd_Asset_1_FRAME_1_SLIM_PERFORMANCE_FIT_0_Layer0_0_MEMBER_15_FILL"/>
</g>

<g transform="matrix( 1, 0, 0, 1, 146.85,25.35) ">
<use xlink:href="#lulu_run_ss_300x600_product_psd_Asset_1_FRAME_1_SLIM_PERFORMANCE_FIT_0_Layer0_0_MEMBER_16_FILL"/>
</g>

<g transform="matrix( 1, 0, 0, 1, 146.85,25.35) ">
<use xlink:href="#lulu_run_ss_300x600_product_psd_Asset_1_FRAME_1_SLIM_PERFORMANCE_FIT_0_Layer0_0_MEMBER_17_FILL"/>
</g>
</g>
</g>
</svg>
