
<svg xmlns="http://www.w3.org/2000/svg" version="1.1" xmlns:xlink="http://www.w3.org/1999/xlink" preserveAspectRatio="none" x="0px" y="0px" width="728px" height="90px" viewBox="0 0 728 90">
<defs>
<g id="LEADERBOARD_728_X_90_PRODUCT_June_21_psd_Asset_OPTION_1_FRAME_2_Open_Mind_0_Layer0_0_MEMBER_0_FILL">
<path fill="#FFFFFF" stroke="none" d="
M -74.85 -17.45
Q -78.45 -17.45 -80.7 -14.95 -83 -12.45 -83 -8.6 -83 -4.7 -80.7 -2.2 -78.45 0.3 -74.85 0.3 -71.25 0.3 -68.95 -2.2 -66.7 -4.7 -66.7 -8.6 -66.7 -12.45 -68.95 -14.95 -71.25 -17.45 -74.85 -17.45
M -74.85 -14.3
Q -72.8 -14.3 -71.55 -12.7 -70.3 -11.15 -70.3 -8.6 -70.3 -6.05 -71.55 -4.5 -72.8 -2.9 -74.85 -2.9 -76.85 -2.9 -78.1 -4.5 -79.35 -6.05 -79.35 -8.6 -79.35 -11.1 -78.1 -12.7 -76.85 -14.3 -74.85 -14.3 Z"/>
</g>

<g id="LEADERBOARD_728_X_90_PRODUCT_June_21_psd_Asset_OPTION_1_FRAME_2_Open_Mind_0_Layer0_0_MEMBER_1_FILL">
<path fill="#FFFFFF" stroke="none" d="
M -53 -17.2
L -60 -17.2 -60 0 -56.45 0 -56.45 -5.95 -53 -5.95
Q -50.25 -5.95 -48.6 -7.4 -46.95 -8.85 -46.95 -11.55 -46.95 -14.25 -48.6 -15.75 -50.25 -17.2 -53 -17.2
M -56.45 -14.15
L -53.25 -14.15
Q -50.5 -14.15 -50.5 -11.55 -50.5 -10.4 -51.2 -9.75 -51.9 -9 -53.25 -9
L -56.45 -9 -56.45 -14.15 Z"/>
</g>

<g id="LEADERBOARD_728_X_90_PRODUCT_June_21_psd_Asset_OPTION_1_FRAME_2_Open_Mind_0_Layer0_0_MEMBER_2_FILL">
<path fill="#FFFFFF" stroke="none" d="
M -28.7 -14.05
L -28.7 -17.2 -40.35 -17.2 -40.35 0 -28.7 0 -28.7 -3.15 -36.85 -3.15 -36.85 -7.25 -29.45 -7.25 -29.45 -10.3 -36.85 -10.3 -36.85 -14.05 -28.7 -14.05 Z"/>
</g>

<g id="LEADERBOARD_728_X_90_PRODUCT_June_21_psd_Asset_OPTION_1_FRAME_2_Open_Mind_0_Layer0_0_MEMBER_3_FILL">
<path fill="#FFFFFF" stroke="none" d="
M -18.35 -17.2
L -21.7 -17.2 -21.7 0 -18.25 0 -18.25 -11.45 -10.15 0 -7.3 0 -7.3 -17.2 -10.75 -17.2 -10.75 -6.35 -18.35 -17.2 Z"/>
</g>

<g id="LEADERBOARD_728_X_90_PRODUCT_June_21_psd_Asset_OPTION_1_FRAME_2_Open_Mind_0_Layer0_0_MEMBER_4_FILL">
<path fill="#FFFFFF" stroke="none" d="
M 14.55 -17.2
L 10.3 -17.2 10.3 0 13.7 0 13.7 -11.25 17.95 0 20.35 0 24.55 -11.25 24.55 0 27.95 0 27.95 -17.2 23.75 -17.2 19.15 -5.05 14.55 -17.2 Z"/>
</g>

<g id="LEADERBOARD_728_X_90_PRODUCT_June_21_psd_Asset_OPTION_1_FRAME_2_Open_Mind_0_Layer0_0_MEMBER_5_FILL">
<path fill="#FFFFFF" stroke="none" d="
M 39 -17.2
L 35.45 -17.2 35.45 0 39 0 39 -17.2 Z"/>
</g>

<g id="LEADERBOARD_728_X_90_PRODUCT_June_21_psd_Asset_OPTION_1_FRAME_2_Open_Mind_0_Layer0_0_MEMBER_6_FILL">
<path fill="#FFFFFF" stroke="none" d="
M 49.85 -17.2
L 46.5 -17.2 46.5 0 49.95 0 49.95 -11.45 58.05 0 60.9 0 60.9 -17.2 57.45 -17.2 57.45 -6.35 49.85 -17.2 Z"/>
</g>

<g id="LEADERBOARD_728_X_90_PRODUCT_June_21_psd_Asset_OPTION_1_FRAME_2_Open_Mind_0_Layer0_0_MEMBER_7_FILL">
<path fill="#FFFFFF" stroke="none" d="
M 80.65 -14.85
Q 78.35 -17.2 74.45 -17.2
L 68.4 -17.2 68.4 0 74.45 0
Q 78.35 0 80.65 -2.35 82.95 -4.65 82.95 -8.6 82.95 -12.55 80.65 -14.85
M 74.35 -14.05
Q 76.75 -14.05 78.1 -12.6 79.4 -11.15 79.4 -8.6 79.4 -6.05 78.1 -4.6 76.75 -3.15 74.35 -3.15
L 71.95 -3.15 71.95 -14.05 74.35 -14.05 Z"/>
</g>
</defs>

<g transform="matrix( 1, 0, 0, 1, -53,-222) ">
<g transform="matrix( 1, 0, 0, 1, 192,232) ">
<g transform="matrix( 1, 0, 0, 1, 0,24) ">
<g transform="matrix( 1, 0, 0, 1, 82.85,18.35) ">
<use xlink:href="#LEADERBOARD_728_X_90_PRODUCT_June_21_psd_Asset_OPTION_1_FRAME_2_Open_Mind_0_Layer0_0_MEMBER_0_FILL"/>
</g>

<g transform="matrix( 1, 0, 0, 1, 82.85,18.35) ">
<use xlink:href="#LEADERBOARD_728_X_90_PRODUCT_June_21_psd_Asset_OPTION_1_FRAME_2_Open_Mind_0_Layer0_0_MEMBER_1_FILL"/>
</g>

<g transform="matrix( 1, 0, 0, 1, 82.85,18.35) ">
<use xlink:href="#LEADERBOARD_728_X_90_PRODUCT_June_21_psd_Asset_OPTION_1_FRAME_2_Open_Mind_0_Layer0_0_MEMBER_2_FILL"/>
</g>

<g transform="matrix( 1, 0, 0, 1, 82.85,18.35) ">
<use xlink:href="#LEADERBOARD_728_X_90_PRODUCT_June_21_psd_Asset_OPTION_1_FRAME_2_Open_Mind_0_Layer0_0_MEMBER_3_FILL"/>
</g>

<g transform="matrix( 1, 0, 0, 1, 82.85,18.35) ">
<use xlink:href="#LEADERBOARD_728_X_90_PRODUCT_June_21_psd_Asset_OPTION_1_FRAME_2_Open_Mind_0_Layer0_0_MEMBER_4_FILL"/>
</g>

<g transform="matrix( 1, 0, 0, 1, 82.85,18.35) ">
<use xlink:href="#LEADERBOARD_728_X_90_PRODUCT_June_21_psd_Asset_OPTION_1_FRAME_2_Open_Mind_0_Layer0_0_MEMBER_5_FILL"/>
</g>

<g transform="matrix( 1, 0, 0, 1, 82.85,18.35) ">
<use xlink:href="#LEADERBOARD_728_X_90_PRODUCT_June_21_psd_Asset_OPTION_1_FRAME_2_Open_Mind_0_Layer0_0_MEMBER_6_FILL"/>
</g>

<g transform="matrix( 1, 0, 0, 1, 82.85,18.35) ">
<use xlink:href="#LEADERBOARD_728_X_90_PRODUCT_June_21_psd_Asset_OPTION_1_FRAME_2_Open_Mind_0_Layer0_0_MEMBER_7_FILL"/>
</g>
</g>
</g>
</g>
</svg>
