
<svg xmlns="http://www.w3.org/2000/svg" version="1.1" xmlns:xlink="http://www.w3.org/1999/xlink" preserveAspectRatio="none" x="0px" y="0px" width="300px" height="600px" viewBox="0 0 300 600">
<defs>
<g id="SKYSCRAPER_300_X_600_PRODUCT_June_20_psd_Asset_FRAME_2_Open_Mind_0_Layer0_0_MEMBER_0_FILL">
<path fill="#FFFFFF" stroke="none" d="
M -20.8 -12.85
Q -22.75 -15 -25.8 -15 -28.9 -15 -30.85 -12.85 -32.8 -10.7 -32.8 -7.35 -32.8 -4.05 -30.85 -1.9 -28.9 0.25 -25.8 0.25 -22.75 0.25 -20.8 -1.9 -18.85 -4.05 -18.85 -7.35 -18.85 -10.7 -20.8 -12.85
M -23 -10.9
Q -21.95 -9.55 -21.95 -7.35 -21.95 -5.2 -23 -3.85 -24.05 -2.5 -25.8 -2.5 -27.55 -2.5 -28.6 -3.85 -29.65 -5.2 -29.65 -7.35 -29.65 -9.55 -28.6 -10.9 -27.55 -12.25 -25.8 -12.25 -24.05 -12.25 -23 -10.9 Z"/>
</g>

<g id="SKYSCRAPER_300_X_600_PRODUCT_June_20_psd_Asset_FRAME_2_Open_Mind_0_Layer0_0_MEMBER_1_FILL">
<path fill="#FFFFFF" stroke="none" d="
M -3.35 -13.5
Q -4.7 -14.75 -7.1 -14.75
L -13.1 -14.75 -13.1 0 -10.05 0 -10.05 -5.1 -7.1 -5.1
Q -4.75 -5.1 -3.35 -6.35 -1.9 -7.6 -1.9 -9.9 -1.9 -12.2 -3.35 -13.5
M -7.3 -12.1
Q -4.95 -12.1 -4.95 -9.9 -4.95 -7.75 -7.3 -7.75
L -10.05 -7.75 -10.05 -12.1 -7.3 -12.1 Z"/>
</g>

<g id="SKYSCRAPER_300_X_600_PRODUCT_June_20_psd_Asset_FRAME_2_Open_Mind_0_Layer0_0_MEMBER_2_FILL">
<path fill="#FFFFFF" stroke="none" d="
M 6.75 -8.85
L 6.75 -12.05 13.75 -12.05 13.75 -14.75 3.75 -14.75 3.75 0 13.75 0 13.75 -2.7 6.75 -2.7 6.75 -6.2 13.1 -6.2 13.1 -8.85 6.75 -8.85 Z"/>
</g>

<g id="SKYSCRAPER_300_X_600_PRODUCT_June_20_psd_Asset_FRAME_2_Open_Mind_0_Layer0_0_MEMBER_3_FILL">
<path fill="#FFFFFF" stroke="none" d="
M 22.6 -14.75
L 19.75 -14.75 19.75 0 22.7 0 22.7 -9.8 29.65 0 32.05 0 32.05 -14.75 29.1 -14.75 29.1 -5.4 22.6 -14.75 Z"/>
</g>

<g id="SKYSCRAPER_300_X_600_PRODUCT_June_20_psd_Asset_FRAME_2_Open_Mind_0_Layer0_0_MEMBER_4_FILL">
<path fill="#FFFFFF" stroke="none" d="
M -18.6 12.4
L -18.6 22 -15.7 22 -15.7 7.25 -19.3 7.25 -23.2 17.65 -27.15 7.25 -30.8 7.25 -30.8 22 -27.9 22 -27.9 12.4 -24.25 22 -22.15 22 -18.6 12.4 Z"/>
</g>

<g id="SKYSCRAPER_300_X_600_PRODUCT_June_20_psd_Asset_FRAME_2_Open_Mind_0_Layer0_0_MEMBER_5_FILL">
<path fill="#FFFFFF" stroke="none" d="
M -6.2 22
L -6.2 7.25 -9.25 7.25 -9.25 22 -6.2 22 Z"/>
</g>

<g id="SKYSCRAPER_300_X_600_PRODUCT_June_20_psd_Asset_FRAME_2_Open_Mind_0_Layer0_0_MEMBER_6_FILL">
<path fill="#FFFFFF" stroke="none" d="
M 3.1 7.25
L 0.25 7.25 0.25 22 3.2 22 3.2 12.2 10.15 22 12.55 22 12.55 7.25 9.6 7.25 9.6 16.6 3.1 7.25 Z"/>
</g>

<g id="SKYSCRAPER_300_X_600_PRODUCT_June_20_psd_Asset_FRAME_2_Open_Mind_0_Layer0_0_MEMBER_7_FILL">
<path fill="#FFFFFF" stroke="none" d="
M 29.5 9.25
Q 27.55 7.25 24.2 7.25
L 19 7.25 19 22 24.2 22
Q 27.55 22 29.5 20 31.5 18 31.5 14.65 31.5 11.25 29.5 9.25
M 24.1 9.95
Q 26.2 9.95 27.35 11.2 28.45 12.45 28.45 14.65 28.45 16.8 27.35 18.05 26.2 19.3 24.1 19.3
L 22.05 19.3 22.05 9.95 24.1 9.95 Z"/>
</g>
</defs>

<g transform="matrix( 1, 0, 0, 1, 95,208) ">
<g transform="matrix( 1, 0, 0, 1, 6,0) ">
<g transform="matrix( 1.500823974609375, 0, 0, 1.5036163330078125, 49.45,23.1) ">
<use xlink:href="#SKYSCRAPER_300_X_600_PRODUCT_June_20_psd_Asset_FRAME_2_Open_Mind_0_Layer0_0_MEMBER_0_FILL"/>
</g>

<g transform="matrix( 1.500823974609375, 0, 0, 1.5036163330078125, 49.45,23.1) ">
<use xlink:href="#SKYSCRAPER_300_X_600_PRODUCT_June_20_psd_Asset_FRAME_2_Open_Mind_0_Layer0_0_MEMBER_1_FILL"/>
</g>

<g transform="matrix( 1.500823974609375, 0, 0, 1.5036163330078125, 49.45,23.1) ">
<use xlink:href="#SKYSCRAPER_300_X_600_PRODUCT_June_20_psd_Asset_FRAME_2_Open_Mind_0_Layer0_0_MEMBER_2_FILL"/>
</g>

<g transform="matrix( 1.500823974609375, 0, 0, 1.5036163330078125, 49.45,23.1) ">
<use xlink:href="#SKYSCRAPER_300_X_600_PRODUCT_June_20_psd_Asset_FRAME_2_Open_Mind_0_Layer0_0_MEMBER_3_FILL"/>
</g>

<g transform="matrix( 1.500823974609375, 0, 0, 1.5036163330078125, 49.45,23.1) ">
<use xlink:href="#SKYSCRAPER_300_X_600_PRODUCT_June_20_psd_Asset_FRAME_2_Open_Mind_0_Layer0_0_MEMBER_4_FILL"/>
</g>

<g transform="matrix( 1.500823974609375, 0, 0, 1.5036163330078125, 49.45,23.1) ">
<use xlink:href="#SKYSCRAPER_300_X_600_PRODUCT_June_20_psd_Asset_FRAME_2_Open_Mind_0_Layer0_0_MEMBER_5_FILL"/>
</g>

<g transform="matrix( 1.500823974609375, 0, 0, 1.5036163330078125, 49.45,23.1) ">
<use xlink:href="#SKYSCRAPER_300_X_600_PRODUCT_June_20_psd_Asset_FRAME_2_Open_Mind_0_Layer0_0_MEMBER_6_FILL"/>
</g>

<g transform="matrix( 1.500823974609375, 0, 0, 1.5036163330078125, 49.45,23.1) ">
<use xlink:href="#SKYSCRAPER_300_X_600_PRODUCT_June_20_psd_Asset_FRAME_2_Open_Mind_0_Layer0_0_MEMBER_7_FILL"/>
</g>
</g>
</g>
</svg>
