
<svg xmlns="http://www.w3.org/2000/svg" version="1.1" xmlns:xlink="http://www.w3.org/1999/xlink" preserveAspectRatio="none" x="0px" y="0px" width="300px" height="250px" viewBox="0 0 300 250">
<defs>
<g id="Mask_flash0_ai_Assets_Layer_1__Clip_Group__0_2_MASK_0_FILL">
<path fill="#FFFFFF" stroke="none" d="
M 0 0
L 0 37 37 37 37 0 0 0 Z"/>
</g>

<g id="flash0_ai_Assets_Layer_1__Clip_Group__0_Layer2_0_FILL">
<path fill="#FFFFFF" stroke="none" d="
M 36.95 18.5
Q 36.95 10.85 31.55 5.45 26.15 0 18.45 0 10.8 0 5.4 5.45 0 10.85 0 18.5 0 26.2 5.4 31.6 10.8 37 18.45 37 26.15 37 31.55 31.6 36.95 26.2 36.95 18.5
M 26.55 19.05
Q 24.8 22.3 24.65 23.75 24.45 25.8 26.5 27.15 27.35 27.7 28.15 27.7 29.5 27.7 31.4 26.75
L 31.25 27.05
Q 28.95 30.45 25.7 30.45 24.45 30.45 22.8 29.8 21.2 29.05 20.2 27.35 19.2 25.65 19.5 24 19.65 23.4 20.75 20.35 22.35 16.3 22.85 14.1 23.65 10.5 22.5 8.8 21.5 7.2 18.45 7.2 15.45 7.2 14.45 8.8 13.3 10.5 14.1 14.1 14.6 16.3 16.2 20.35 17.3 23.35 17.45 24.05 17.75 25.65 16.75 27.35 15.75 29.05 14.15 29.8 12.55 30.45 11.2 30.45 8 30.45 5.75 27.05
L 5.55 26.75
Q 7.45 27.7 8.8 27.7 9.6 27.7 10.45 27.15 12.5 25.8 12.3 23.75 12.15 22.3 10.4 19.05 8.6 16 8.2 14.2 7.25 10 8.95 7.8 10.15 6.35 12.25 5.7 14.75 4.9 18.1 4.9
L 18.85 4.9
Q 22.2 4.9 24.7 5.7 26.8 6.35 28 7.8 29.75 10.05 28.7 14.2 28.35 16 26.55 19.05 Z"/>
</g>
</defs>

<g transform="matrix( 1, 0, 0, 1, -349,-234) ">
<g transform="matrix( 1, 0, 0, 1, 481,415) ">
<mask id="Mask_Mask_1">
<g transform="matrix( 1, 0, 0, 1, 0,0) ">
<use xlink:href="#Mask_flash0_ai_Assets_Layer_1__Clip_Group__0_2_MASK_0_FILL"/>
</g>
</mask>

<g mask="url(#Mask_Mask_1)">
<g transform="matrix( 1, 0, 0, 1, 0,0) ">
<use xlink:href="#flash0_ai_Assets_Layer_1__Clip_Group__0_Layer2_0_FILL"/>
</g>
</g>
</g>
</g>
</svg>
