
<svg xmlns="http://www.w3.org/2000/svg" version="1.1" xmlns:xlink="http://www.w3.org/1999/xlink" preserveAspectRatio="none" x="0px" y="0px" width="300px" height="250px" viewBox="0 0 300 250">
<defs>
<g id="BIG_BOX_300_X_250_PRODUCT_V2_psd_Asset_1_OPTION_1_FRAME_2_So_you_can_run_free_0_Layer0_0_MEMBER_0_FILL">
<path fill="#FFFFFF" stroke="none" d="
M -85.05 -17.45
Q -87.75 -17.45 -89.45 -16 -91.2 -14.5 -91.2 -12.2 -91.2 -8.45 -86.85 -7.5
L -83.8 -6.8
Q -81.7 -6.3 -81.7 -4.85 -81.7 -2.7 -84.55 -2.7 -87.25 -2.7 -88 -4.9
L -91.65 -4.9
Q -91.25 -2.45 -89.3 -1.05 -87.45 0.3 -84.55 0.3 -81.75 0.3 -80 -1.15 -78.15 -2.6 -78.15 -5.05 -78.15 -8.85 -82.65 -9.9
L -85.8 -10.65
Q -87.7 -11.1 -87.7 -12.5 -87.7 -13.45 -86.95 -14 -86.25 -14.55 -85 -14.55 -82.55 -14.55 -81.85 -12.5
L -78.3 -12.5
Q -78.75 -14.75 -80.4 -16.05 -82.2 -17.45 -85.05 -17.45 Z"/>
</g>

<g id="BIG_BOX_300_X_250_PRODUCT_V2_psd_Asset_1_OPTION_1_FRAME_2_So_you_can_run_free_0_Layer0_0_MEMBER_1_FILL">
<path fill="#FFFFFF" stroke="none" d="
M -64.2 -17.45
Q -67.75 -17.45 -70.05 -14.95 -72.3 -12.45 -72.3 -8.6 -72.3 -4.7 -70.05 -2.2 -67.75 0.3 -64.2 0.3 -60.6 0.3 -58.3 -2.2 -56.05 -4.7 -56.05 -8.6 -56.05 -12.45 -58.3 -14.95 -60.6 -17.45 -64.2 -17.45
M -67.45 -12.7
Q -66.2 -14.3 -64.2 -14.3 -62.15 -14.3 -60.9 -12.7 -59.65 -11.15 -59.65 -8.6 -59.65 -6.05 -60.9 -4.5 -62.15 -2.9 -64.2 -2.9 -66.2 -2.9 -67.45 -4.5 -68.65 -6.05 -68.65 -8.6 -68.65 -11.15 -67.45 -12.7 Z"/>
</g>

<g id="BIG_BOX_300_X_250_PRODUCT_V2_psd_Asset_1_OPTION_1_FRAME_2_So_you_can_run_free_0_Layer0_0_MEMBER_2_FILL">
<path fill="#FFFFFF" stroke="none" d="
M -28.35 -17.2
L -32.5 -9.9 -36.65 -17.2 -40.55 -17.2 -34.35 -6.5 -34.35 0 -30.8 0 -30.8 -6.5 -24.55 -17.2 -28.35 -17.2 Z"/>
</g>

<g id="BIG_BOX_300_X_250_PRODUCT_V2_psd_Asset_1_OPTION_1_FRAME_2_So_you_can_run_free_0_Layer0_0_MEMBER_3_FILL">
<path fill="#FFFFFF" stroke="none" d="
M -12.35 -17.45
Q -15.95 -17.45 -18.2 -14.95 -20.45 -12.5 -20.45 -8.6 -20.45 -4.7 -18.2 -2.2 -15.95 0.3 -12.35 0.3 -8.75 0.3 -6.45 -2.2 -4.2 -4.7 -4.2 -8.6 -4.2 -12.45 -6.45 -14.95 -8.75 -17.45 -12.35 -17.45
M -15.6 -12.7
Q -14.35 -14.3 -12.35 -14.3 -10.3 -14.3 -9.05 -12.7 -7.8 -11.15 -7.8 -8.6 -7.8 -6.05 -9.05 -4.5 -10.3 -2.9 -12.35 -2.9 -14.35 -2.9 -15.6 -4.5 -16.85 -6.05 -16.85 -8.6 -16.85 -11.1 -15.6 -12.7 Z"/>
</g>

<g id="BIG_BOX_300_X_250_PRODUCT_V2_psd_Asset_1_OPTION_1_FRAME_2_So_you_can_run_free_0_Layer0_0_MEMBER_4_FILL">
<path fill="#FFFFFF" stroke="none" d="
M 16.5 -17.2
L 12.95 -17.2 12.95 -7.3
Q 12.95 -2.95 9.4 -2.95 5.8 -2.95 5.8 -7.3
L 5.8 -17.2 2.25 -17.2 2.25 -6.9
Q 2.25 -3.45 4.2 -1.55 6.1 0.3 9.4 0.3 12.7 0.3 14.55 -1.55 16.5 -3.45 16.5 -6.9
L 16.5 -17.2 Z"/>
</g>

<g id="BIG_BOX_300_X_250_PRODUCT_V2_psd_Asset_1_OPTION_1_FRAME_2_So_you_can_run_free_0_Layer0_0_MEMBER_5_FILL">
<path fill="#FFFFFF" stroke="none" d="
M 35.35 -15
Q 33.05 -12.5 33.05 -8.6 33.05 -4.7 35.35 -2.2 37.65 0.3 41.1 0.3 44.05 0.3 45.95 -1.35 47.8 -2.9 48.25 -5.55
L 44.7 -5.55
Q 43.75 -2.9 41.1 -2.9 39.1 -2.9 37.85 -4.55 36.7 -6.1 36.7 -8.6 36.7 -11.1 37.85 -12.65 39.1 -14.3 41.1 -14.3 43.75 -14.3 44.7 -11.65
L 48.25 -11.65
Q 47.8 -14.3 45.95 -15.85 44.05 -17.45 41.1 -17.45 37.6 -17.45 35.35 -15 Z"/>
</g>

<g id="BIG_BOX_300_X_250_PRODUCT_V2_psd_Asset_1_OPTION_1_FRAME_2_So_you_can_run_free_0_Layer0_0_MEMBER_6_FILL">
<path fill="#FFFFFF" stroke="none" d="
M 63.25 -17.2
L 59.7 -17.2 53.1 0 56.7 0 58.2 -4.15 64.65 -4.15 66.2 0 69.85 0 63.25 -17.2
M 59.35 -7.15
L 61.45 -12.9 63.55 -7.15 59.35 -7.15 Z"/>
</g>

<g id="BIG_BOX_300_X_250_PRODUCT_V2_psd_Asset_1_OPTION_1_FRAME_2_So_you_can_run_free_0_Layer0_0_MEMBER_7_FILL">
<path fill="#FFFFFF" stroke="none" d="
M 79.45 -17.2
L 76.1 -17.2 76.1 0 79.55 0 79.55 -11.45 87.65 0 90.5 0 90.5 -17.2 87.05 -17.2 87.05 -6.35 79.45 -17.2 Z"/>
</g>

<g id="BIG_BOX_300_X_250_PRODUCT_V2_psd_Asset_1_OPTION_1_FRAME_2_So_you_can_run_free_0_Layer0_0_MEMBER_8_FILL">
<path fill="#FFFFFF" stroke="none" d="
M -58.55 15.6
Q -57.5 14.25 -57.5 12.25 -57.5 9.65 -59.15 8.2 -60.8 6.8 -63.55 6.8
L -70.65 6.8 -70.65 24 -67.05 24 -67.05 17.6 -65.2 17.6 -60.95 24 -56.9 24 -61.45 17.35
Q -59.6 16.9 -58.55 15.6
M -67.05 9.85
L -63.75 9.85
Q -62.45 9.85 -61.75 10.5 -61.05 11.15 -61.05 12.25 -61.05 13.35 -61.75 14 -62.45 14.65 -63.75 14.65
L -67.05 14.65 -67.05 9.85 Z"/>
</g>

<g id="BIG_BOX_300_X_250_PRODUCT_V2_psd_Asset_1_OPTION_1_FRAME_2_So_you_can_run_free_0_Layer0_0_MEMBER_9_FILL">
<path fill="#FFFFFF" stroke="none" d="
M -40.2 6.8
L -40.2 16.7
Q -40.2 21.05 -43.8 21.05 -47.35 21.05 -47.35 16.7
L -47.35 6.8 -50.9 6.8 -50.9 17.1
Q -50.9 20.55 -48.95 22.45 -47.05 24.3 -43.8 24.3 -40.5 24.3 -38.6 22.45 -36.65 20.55 -36.65 17.1
L -36.65 6.8 -40.2 6.8 Z"/>
</g>

<g id="BIG_BOX_300_X_250_PRODUCT_V2_psd_Asset_1_OPTION_1_FRAME_2_So_you_can_run_free_0_Layer0_0_MEMBER_10_FILL">
<path fill="#FFFFFF" stroke="none" d="
M -15 24
L -15 6.8 -18.45 6.8 -18.45 17.65 -26.05 6.8 -29.4 6.8 -29.4 24 -25.95 24 -25.95 12.55 -17.8 24 -15 24 Z"/>
</g>

<g id="BIG_BOX_300_X_250_PRODUCT_V2_psd_Asset_1_OPTION_1_FRAME_2_So_you_can_run_free_0_Layer0_0_MEMBER_11_FILL">
<path fill="#FFFFFF" stroke="none" d="
M 14.1 9.95
L 14.1 6.8 2.65 6.8 2.65 24 6.2 24 6.2 17.4 13.5 17.4 13.5 14.3 6.2 14.3 6.2 9.95 14.1 9.95 Z"/>
</g>

<g id="BIG_BOX_300_X_250_PRODUCT_V2_psd_Asset_1_OPTION_1_FRAME_2_So_you_can_run_free_0_Layer0_0_MEMBER_12_FILL">
<path fill="#FFFFFF" stroke="none" d="
M 34 12.25
Q 34 9.65 32.35 8.2 30.7 6.8 27.95 6.8
L 20.85 6.8 20.85 24 24.45 24 24.45 17.6 26.3 17.6 30.55 24 34.6 24 30.05 17.35
Q 31.9 16.9 32.95 15.6 34 14.25 34 12.25
M 24.45 9.85
L 27.75 9.85
Q 30.45 9.85 30.45 12.25 30.45 14.65 27.75 14.65
L 24.45 14.65 24.45 9.85 Z"/>
</g>

<g id="BIG_BOX_300_X_250_PRODUCT_V2_psd_Asset_1_OPTION_1_FRAME_2_So_you_can_run_free_0_Layer0_0_MEMBER_13_FILL">
<path fill="#FFFFFF" stroke="none" d="
M 52.5 9.95
L 52.5 6.8 40.85 6.8 40.85 24 52.5 24 52.5 20.85 44.35 20.85 44.35 16.75 51.75 16.75 51.75 13.7 44.35 13.7 44.35 9.95 52.5 9.95 Z"/>
</g>

<g id="BIG_BOX_300_X_250_PRODUCT_V2_psd_Asset_1_OPTION_1_FRAME_2_So_you_can_run_free_0_Layer0_0_MEMBER_14_FILL">
<path fill="#FFFFFF" stroke="none" d="
M 71.15 9.95
L 71.15 6.8 59.5 6.8 59.5 24 71.15 24 71.15 20.85 63 20.85 63 16.75 70.4 16.75 70.4 13.7 63 13.7 63 9.95 71.15 9.95 Z"/>
</g>
</defs>

<g transform="matrix( 1, 0, 0, 1, -1146,-905) ">
<g transform="matrix( 1, 0, 0, 1, 114,117) ">
<g transform="matrix( 1, 0, 0, 1, 1091,849) ">
<g transform="matrix( 1, 0, 0, 1, 91.5,18.35) ">
<use xlink:href="#BIG_BOX_300_X_250_PRODUCT_V2_psd_Asset_1_OPTION_1_FRAME_2_So_you_can_run_free_0_Layer0_0_MEMBER_0_FILL"/>
</g>

<g transform="matrix( 1, 0, 0, 1, 91.5,18.35) ">
<use xlink:href="#BIG_BOX_300_X_250_PRODUCT_V2_psd_Asset_1_OPTION_1_FRAME_2_So_you_can_run_free_0_Layer0_0_MEMBER_1_FILL"/>
</g>

<g transform="matrix( 1, 0, 0, 1, 91.5,18.35) ">
<use xlink:href="#BIG_BOX_300_X_250_PRODUCT_V2_psd_Asset_1_OPTION_1_FRAME_2_So_you_can_run_free_0_Layer0_0_MEMBER_2_FILL"/>
</g>

<g transform="matrix( 1, 0, 0, 1, 91.5,18.35) ">
<use xlink:href="#BIG_BOX_300_X_250_PRODUCT_V2_psd_Asset_1_OPTION_1_FRAME_2_So_you_can_run_free_0_Layer0_0_MEMBER_3_FILL"/>
</g>

<g transform="matrix( 1, 0, 0, 1, 91.5,18.35) ">
<use xlink:href="#BIG_BOX_300_X_250_PRODUCT_V2_psd_Asset_1_OPTION_1_FRAME_2_So_you_can_run_free_0_Layer0_0_MEMBER_4_FILL"/>
</g>

<g transform="matrix( 1, 0, 0, 1, 91.5,18.35) ">
<use xlink:href="#BIG_BOX_300_X_250_PRODUCT_V2_psd_Asset_1_OPTION_1_FRAME_2_So_you_can_run_free_0_Layer0_0_MEMBER_5_FILL"/>
</g>

<g transform="matrix( 1, 0, 0, 1, 91.5,18.35) ">
<use xlink:href="#BIG_BOX_300_X_250_PRODUCT_V2_psd_Asset_1_OPTION_1_FRAME_2_So_you_can_run_free_0_Layer0_0_MEMBER_6_FILL"/>
</g>

<g transform="matrix( 1, 0, 0, 1, 91.5,18.35) ">
<use xlink:href="#BIG_BOX_300_X_250_PRODUCT_V2_psd_Asset_1_OPTION_1_FRAME_2_So_you_can_run_free_0_Layer0_0_MEMBER_7_FILL"/>
</g>

<g transform="matrix( 1, 0, 0, 1, 91.5,18.35) ">
<use xlink:href="#BIG_BOX_300_X_250_PRODUCT_V2_psd_Asset_1_OPTION_1_FRAME_2_So_you_can_run_free_0_Layer0_0_MEMBER_8_FILL"/>
</g>

<g transform="matrix( 1, 0, 0, 1, 91.5,18.35) ">
<use xlink:href="#BIG_BOX_300_X_250_PRODUCT_V2_psd_Asset_1_OPTION_1_FRAME_2_So_you_can_run_free_0_Layer0_0_MEMBER_9_FILL"/>
</g>

<g transform="matrix( 1, 0, 0, 1, 91.5,18.35) ">
<use xlink:href="#BIG_BOX_300_X_250_PRODUCT_V2_psd_Asset_1_OPTION_1_FRAME_2_So_you_can_run_free_0_Layer0_0_MEMBER_10_FILL"/>
</g>

<g transform="matrix( 1, 0, 0, 1, 91.5,18.35) ">
<use xlink:href="#BIG_BOX_300_X_250_PRODUCT_V2_psd_Asset_1_OPTION_1_FRAME_2_So_you_can_run_free_0_Layer0_0_MEMBER_11_FILL"/>
</g>

<g transform="matrix( 1, 0, 0, 1, 91.5,18.35) ">
<use xlink:href="#BIG_BOX_300_X_250_PRODUCT_V2_psd_Asset_1_OPTION_1_FRAME_2_So_you_can_run_free_0_Layer0_0_MEMBER_12_FILL"/>
</g>

<g transform="matrix( 1, 0, 0, 1, 91.5,18.35) ">
<use xlink:href="#BIG_BOX_300_X_250_PRODUCT_V2_psd_Asset_1_OPTION_1_FRAME_2_So_you_can_run_free_0_Layer0_0_MEMBER_13_FILL"/>
</g>

<g transform="matrix( 1, 0, 0, 1, 91.5,18.35) ">
<use xlink:href="#BIG_BOX_300_X_250_PRODUCT_V2_psd_Asset_1_OPTION_1_FRAME_2_So_you_can_run_free_0_Layer0_0_MEMBER_14_FILL"/>
</g>
</g>
</g>
</g>
</svg>
