
<svg xmlns="http://www.w3.org/2000/svg" version="1.1" xmlns:xlink="http://www.w3.org/1999/xlink" preserveAspectRatio="none" x="0px" y="0px" width="300px" height="250px" viewBox="0 0 300 250">
<defs>
<g id="BIG_BOX_300_X_250_PRODUCT_June_20_psd_Asset_OPTION_1_FRAME_3_Get_lost__Get_found___0_Layer0_0_MEMBER_0_FILL">
<path fill="#FFFFFF" stroke="none" d="
M -62.7 -15.85
Q -64.6 -17.45 -67.65 -17.45 -71.15 -17.45 -73.5 -15 -75.85 -12.5 -75.85 -8.6 -75.85 -4.7 -73.5 -2.2 -71.15 0.3 -67.55 0.3 -64.25 0.3 -62.15 -1.8 -60.05 -4 -60.05 -7.5
L -60.05 -9 -66.85 -9 -66.85 -6.15 -63.55 -6.15
Q -63.85 -4.65 -64.85 -3.8 -65.95 -2.9 -67.55 -2.9 -69.7 -2.9 -70.95 -4.5 -72.2 -6.05 -72.2 -8.6 -72.2 -11.1 -70.95 -12.7 -69.7 -14.3 -67.65 -14.3 -65 -14.3 -63.95 -11.65
L -60.35 -11.65
Q -60.85 -14.3 -62.7 -15.85 Z"/>
</g>

<g id="BIG_BOX_300_X_250_PRODUCT_June_20_psd_Asset_OPTION_1_FRAME_3_Get_lost__Get_found___0_Layer0_0_MEMBER_1_FILL">
<path fill="#FFFFFF" stroke="none" d="
M -41.75 -14.05
L -41.75 -17.2 -53.4 -17.2 -53.4 0 -41.75 0 -41.75 -3.15 -49.9 -3.15 -49.9 -7.25 -42.5 -7.25 -42.5 -10.3 -49.9 -10.3 -49.9 -14.05 -41.75 -14.05 Z"/>
</g>

<g id="BIG_BOX_300_X_250_PRODUCT_June_20_psd_Asset_OPTION_1_FRAME_3_Get_lost__Get_found___0_Layer0_0_MEMBER_2_FILL">
<path fill="#FFFFFF" stroke="none" d="
M -35.7 -17.2
L -35.7 -14.05 -30.15 -14.05 -30.15 0 -26.55 0 -26.55 -14.05 -21 -14.05 -21 -17.2 -35.7 -17.2 Z"/>
</g>

<g id="BIG_BOX_300_X_250_PRODUCT_June_20_psd_Asset_OPTION_1_FRAME_3_Get_lost__Get_found___0_Layer0_0_MEMBER_3_FILL">
<path fill="#FFFFFF" stroke="none" d="
M -0.75 -17.2
L -4.35 -17.2 -4.35 0 7.25 0 7.25 -3.15 -0.75 -3.15 -0.75 -17.2 Z"/>
</g>

<g id="BIG_BOX_300_X_250_PRODUCT_June_20_psd_Asset_OPTION_1_FRAME_3_Get_lost__Get_found___0_Layer0_0_MEMBER_4_FILL">
<path fill="#FFFFFF" stroke="none" d="
M 14.75 -14.95
Q 12.5 -12.45 12.5 -8.6 12.5 -4.7 14.75 -2.2 17.05 0.3 20.6 0.3 24.2 0.3 26.5 -2.2 28.75 -4.7 28.75 -8.6 28.75 -12.45 26.5 -14.95 24.2 -17.45 20.6 -17.45 17.05 -17.45 14.75 -14.95
M 16.15 -8.6
Q 16.15 -11.15 17.35 -12.7 18.6 -14.3 20.6 -14.3 22.65 -14.3 23.9 -12.7 25.15 -11.15 25.15 -8.6 25.15 -6.05 23.9 -4.5 22.65 -2.9 20.6 -2.9 18.6 -2.9 17.35 -4.5 16.15 -6.05 16.15 -8.6 Z"/>
</g>

<g id="BIG_BOX_300_X_250_PRODUCT_June_20_psd_Asset_OPTION_1_FRAME_3_Get_lost__Get_found___0_Layer0_0_MEMBER_5_FILL">
<path fill="#FFFFFF" stroke="none" d="
M 38 -4.9
L 34.3 -4.9
Q 34.7 -2.45 36.65 -1.05 38.55 0.3 41.45 0.3 44.2 0.3 46 -1.15 47.8 -2.6 47.8 -5.05 47.8 -8.85 43.3 -9.9
L 40.15 -10.65
Q 38.25 -11.1 38.25 -12.5 38.25 -13.45 39 -14 39.75 -14.55 40.95 -14.55 43.4 -14.55 44.1 -12.5
L 47.65 -12.5
Q 47.2 -14.75 45.55 -16.05 43.75 -17.45 40.9 -17.45 38.2 -17.45 36.5 -16 34.75 -14.5 34.75 -12.2 34.75 -8.5 39.1 -7.5
L 42.2 -6.8
Q 44.3 -6.3 44.3 -4.85 44.3 -2.7 41.4 -2.7 38.65 -2.7 38 -4.9 Z"/>
</g>

<g id="BIG_BOX_300_X_250_PRODUCT_June_20_psd_Asset_OPTION_1_FRAME_3_Get_lost__Get_found___0_Layer0_0_MEMBER_6_FILL">
<path fill="#FFFFFF" stroke="none" d="
M 53.3 -17.2
L 53.3 -14.05 58.8 -14.05 58.8 0 62.45 0 62.45 -14.05 67.95 -14.05 67.95 -17.2 53.3 -17.2 Z"/>
</g>

<g id="BIG_BOX_300_X_250_PRODUCT_June_20_psd_Asset_OPTION_1_FRAME_3_Get_lost__Get_found___0_Layer0_0_MEMBER_7_FILL">
<path fill="#FFFFFF" stroke="none" d="
M 72.2 -3.6
Q 71.55 -3 71.55 -2.05 71.55 -1.1 72.2 -0.45 72.8 0.2 73.7 0.2 74.65 0.2 75.25 -0.45 75.9 -1.1 75.9 -2.05 75.9 -3 75.25 -3.6 74.65 -4.25 73.7 -4.25 72.8 -4.25 72.2 -3.6 Z"/>
</g>

<g id="BIG_BOX_300_X_250_PRODUCT_June_20_psd_Asset_OPTION_1_FRAME_3_Get_lost__Get_found___0_Layer0_0_MEMBER_8_FILL">
<path fill="#FFFFFF" stroke="none" d="
M -78.7 16.5
L -78.7 15 -85.45 15 -85.45 17.85 -82.2 17.85
Q -82.45 19.35 -83.5 20.2 -84.55 21.1 -86.15 21.1 -88.3 21.1 -89.55 19.5 -90.8 17.95 -90.8 15.4 -90.8 12.9 -89.55 11.3 -88.3 9.7 -86.25 9.7 -83.6 9.7 -82.55 12.35
L -78.95 12.35
Q -79.45 9.7 -81.3 8.15 -83.2 6.55 -86.25 6.55 -89.75 6.55 -92.1 9 -94.45 11.5 -94.45 15.4 -94.45 19.3 -92.1 21.8 -89.75 24.3 -86.15 24.3 -82.85 24.3 -80.8 22.2 -78.7 20.05 -78.7 16.5 Z"/>
</g>

<g id="BIG_BOX_300_X_250_PRODUCT_June_20_psd_Asset_OPTION_1_FRAME_3_Get_lost__Get_found___0_Layer0_0_MEMBER_9_FILL">
<path fill="#FFFFFF" stroke="none" d="
M -60.35 9.95
L -60.35 6.8 -72 6.8 -72 24 -60.35 24 -60.35 20.85 -68.5 20.85 -68.5 16.75 -61.1 16.75 -61.1 13.7 -68.5 13.7 -68.5 9.95 -60.35 9.95 Z"/>
</g>

<g id="BIG_BOX_300_X_250_PRODUCT_June_20_psd_Asset_OPTION_1_FRAME_3_Get_lost__Get_found___0_Layer0_0_MEMBER_10_FILL">
<path fill="#FFFFFF" stroke="none" d="
M -39.6 9.95
L -39.6 6.8 -54.3 6.8 -54.3 9.95 -48.8 9.95 -48.8 24 -45.15 24 -45.15 9.95 -39.6 9.95 Z"/>
</g>

<g id="BIG_BOX_300_X_250_PRODUCT_June_20_psd_Asset_OPTION_1_FRAME_3_Get_lost__Get_found___0_Layer0_0_MEMBER_11_FILL">
<path fill="#FFFFFF" stroke="none" d="
M -19.4 24
L -19.4 17.4 -12.05 17.4 -12.05 14.3 -19.4 14.3 -19.4 9.95 -11.5 9.95 -11.5 6.8 -22.95 6.8 -22.95 24 -19.4 24 Z"/>
</g>

<g id="BIG_BOX_300_X_250_PRODUCT_June_20_psd_Asset_OPTION_1_FRAME_3_Get_lost__Get_found___0_Layer0_0_MEMBER_12_FILL">
<path fill="#FFFFFF" stroke="none" d="
M 8.4 21.8
Q 10.65 19.3 10.65 15.4 10.65 11.55 8.4 9.05 6.1 6.55 2.5 6.55 -1.1 6.55 -3.35 9.05 -5.65 11.55 -5.65 15.4 -5.65 19.3 -3.35 21.8 -1.1 24.3 2.5 24.3 6.1 24.3 8.4 21.8
M 5.8 11.3
Q 7.05 12.85 7.05 15.4 7.05 17.95 5.8 19.5 4.55 21.1 2.5 21.1 0.5 21.1 -0.75 19.5 -2 17.95 -2 15.4 -2 12.9 -0.75 11.3 0.5 9.7 2.5 9.7 4.55 9.7 5.8 11.3 Z"/>
</g>

<g id="BIG_BOX_300_X_250_PRODUCT_June_20_psd_Asset_OPTION_1_FRAME_3_Get_lost__Get_found___0_Layer0_0_MEMBER_13_FILL">
<path fill="#FFFFFF" stroke="none" d="
M 24.2 24.3
Q 27.5 24.3 29.4 22.45 31.35 20.55 31.35 17.1
L 31.35 6.8 27.8 6.8 27.8 16.7
Q 27.8 21.05 24.2 21.05 20.65 21.05 20.65 16.7
L 20.65 6.8 17.1 6.8 17.1 17.1
Q 17.1 20.55 19.05 22.45 20.95 24.3 24.2 24.3 Z"/>
</g>

<g id="BIG_BOX_300_X_250_PRODUCT_June_20_psd_Asset_OPTION_1_FRAME_3_Get_lost__Get_found___0_Layer0_0_MEMBER_14_FILL">
<path fill="#FFFFFF" stroke="none" d="
M 53 24
L 53 6.8 49.55 6.8 49.55 17.65 41.95 6.8 38.6 6.8 38.6 24 42.05 24 42.05 12.55 50.2 24 53 24 Z"/>
</g>

<g id="BIG_BOX_300_X_250_PRODUCT_June_20_psd_Asset_OPTION_1_FRAME_3_Get_lost__Get_found___0_Layer0_0_MEMBER_15_FILL">
<path fill="#FFFFFF" stroke="none" d="
M 72.8 21.65
Q 75.05 19.35 75.05 15.4 75.05 11.45 72.8 9.15 70.5 6.8 66.6 6.8
L 60.5 6.8 60.5 24 66.6 24
Q 70.5 24 72.8 21.65
M 66.45 9.95
Q 68.85 9.95 70.2 11.4 71.5 12.85 71.5 15.4 71.5 17.95 70.2 19.4 68.85 20.85 66.45 20.85
L 64.05 20.85 64.05 9.95 66.45 9.95 Z"/>
</g>

<g id="BIG_BOX_300_X_250_PRODUCT_June_20_psd_Asset_OPTION_1_FRAME_3_Get_lost__Get_found___0_Layer0_0_MEMBER_16_FILL">
<path fill="#FFFFFF" stroke="none" d="
M 83.75 20.4
Q 83.1 19.75 82.2 19.75 81.25 19.75 80.65 20.4 80 21 80 21.95 80 22.9 80.65 23.55 81.25 24.2 82.2 24.2 83.1 24.2 83.75 23.55 84.35 22.9 84.35 21.95 84.35 21 83.75 20.4 Z"/>
</g>
</defs>

<g transform="matrix( 1, 0, 0, 1, -373,-449) ">
<g transform="matrix( 1, 0, 0, 1, 274,322) ">
<g transform="matrix( 1, 0, 0, 1, 155,188) ">
<g transform="matrix( 1, 0, 0, 1, 94.5,18.35) ">
<use xlink:href="#BIG_BOX_300_X_250_PRODUCT_June_20_psd_Asset_OPTION_1_FRAME_3_Get_lost__Get_found___0_Layer0_0_MEMBER_0_FILL"/>
</g>

<g transform="matrix( 1, 0, 0, 1, 94.5,18.35) ">
<use xlink:href="#BIG_BOX_300_X_250_PRODUCT_June_20_psd_Asset_OPTION_1_FRAME_3_Get_lost__Get_found___0_Layer0_0_MEMBER_1_FILL"/>
</g>

<g transform="matrix( 1, 0, 0, 1, 94.5,18.35) ">
<use xlink:href="#BIG_BOX_300_X_250_PRODUCT_June_20_psd_Asset_OPTION_1_FRAME_3_Get_lost__Get_found___0_Layer0_0_MEMBER_2_FILL"/>
</g>

<g transform="matrix( 1, 0, 0, 1, 94.5,18.35) ">
<use xlink:href="#BIG_BOX_300_X_250_PRODUCT_June_20_psd_Asset_OPTION_1_FRAME_3_Get_lost__Get_found___0_Layer0_0_MEMBER_3_FILL"/>
</g>

<g transform="matrix( 1, 0, 0, 1, 94.5,18.35) ">
<use xlink:href="#BIG_BOX_300_X_250_PRODUCT_June_20_psd_Asset_OPTION_1_FRAME_3_Get_lost__Get_found___0_Layer0_0_MEMBER_4_FILL"/>
</g>

<g transform="matrix( 1, 0, 0, 1, 94.5,18.35) ">
<use xlink:href="#BIG_BOX_300_X_250_PRODUCT_June_20_psd_Asset_OPTION_1_FRAME_3_Get_lost__Get_found___0_Layer0_0_MEMBER_5_FILL"/>
</g>

<g transform="matrix( 1, 0, 0, 1, 94.5,18.35) ">
<use xlink:href="#BIG_BOX_300_X_250_PRODUCT_June_20_psd_Asset_OPTION_1_FRAME_3_Get_lost__Get_found___0_Layer0_0_MEMBER_6_FILL"/>
</g>

<g transform="matrix( 1, 0, 0, 1, 94.5,18.35) ">
<use xlink:href="#BIG_BOX_300_X_250_PRODUCT_June_20_psd_Asset_OPTION_1_FRAME_3_Get_lost__Get_found___0_Layer0_0_MEMBER_7_FILL"/>
</g>

<g transform="matrix( 1, 0, 0, 1, 94.5,18.35) ">
<use xlink:href="#BIG_BOX_300_X_250_PRODUCT_June_20_psd_Asset_OPTION_1_FRAME_3_Get_lost__Get_found___0_Layer0_0_MEMBER_8_FILL"/>
</g>

<g transform="matrix( 1, 0, 0, 1, 94.5,18.35) ">
<use xlink:href="#BIG_BOX_300_X_250_PRODUCT_June_20_psd_Asset_OPTION_1_FRAME_3_Get_lost__Get_found___0_Layer0_0_MEMBER_9_FILL"/>
</g>

<g transform="matrix( 1, 0, 0, 1, 94.5,18.35) ">
<use xlink:href="#BIG_BOX_300_X_250_PRODUCT_June_20_psd_Asset_OPTION_1_FRAME_3_Get_lost__Get_found___0_Layer0_0_MEMBER_10_FILL"/>
</g>

<g transform="matrix( 1, 0, 0, 1, 94.5,18.35) ">
<use xlink:href="#BIG_BOX_300_X_250_PRODUCT_June_20_psd_Asset_OPTION_1_FRAME_3_Get_lost__Get_found___0_Layer0_0_MEMBER_11_FILL"/>
</g>

<g transform="matrix( 1, 0, 0, 1, 94.5,18.35) ">
<use xlink:href="#BIG_BOX_300_X_250_PRODUCT_June_20_psd_Asset_OPTION_1_FRAME_3_Get_lost__Get_found___0_Layer0_0_MEMBER_12_FILL"/>
</g>

<g transform="matrix( 1, 0, 0, 1, 94.5,18.35) ">
<use xlink:href="#BIG_BOX_300_X_250_PRODUCT_June_20_psd_Asset_OPTION_1_FRAME_3_Get_lost__Get_found___0_Layer0_0_MEMBER_13_FILL"/>
</g>

<g transform="matrix( 1, 0, 0, 1, 94.5,18.35) ">
<use xlink:href="#BIG_BOX_300_X_250_PRODUCT_June_20_psd_Asset_OPTION_1_FRAME_3_Get_lost__Get_found___0_Layer0_0_MEMBER_14_FILL"/>
</g>

<g transform="matrix( 1, 0, 0, 1, 94.5,18.35) ">
<use xlink:href="#BIG_BOX_300_X_250_PRODUCT_June_20_psd_Asset_OPTION_1_FRAME_3_Get_lost__Get_found___0_Layer0_0_MEMBER_15_FILL"/>
</g>

<g transform="matrix( 1, 0, 0, 1, 94.5,18.35) ">
<use xlink:href="#BIG_BOX_300_X_250_PRODUCT_June_20_psd_Asset_OPTION_1_FRAME_3_Get_lost__Get_found___0_Layer0_0_MEMBER_16_FILL"/>
</g>
</g>
</g>
</g>
</svg>
