
<svg xmlns="http://www.w3.org/2000/svg" version="1.1" xmlns:xlink="http://www.w3.org/1999/xlink" preserveAspectRatio="none" x="0px" y="0px" width="300px" height="250px" viewBox="0 0 300 250">
<defs>
<g id="lulu_run_SS_300x250_Brand_V2_psd_Asset_FINAL_FRAME__MoreThanMiles_0_Layer0_0_MEMBER_0_FILL">
<path fill="#58595B" stroke="none" d="
M 12.25 11.85
L 12.4 10.8 9.8 10.8 10.7 6.9 13.25 6.9 13.5 5.85 10.95 5.85 12.15 0.95 11 0.95 9.8 5.85 5.75 5.85 6.95 0.95 5.8 0.95 4.6 5.85 1.95 5.85 1.75 6.9 4.4 6.9 3.45 10.8 0.95 10.8 0.7 11.85 3.2 11.85 2.05 16.8 3.15 16.8 4.35 11.85 8.35 11.85 7.2 16.8 8.35 16.8 9.55 11.85 12.25 11.85
M 9.55 6.9
L 8.6 10.8 4.55 10.8 5.55 6.9 9.55 6.9 Z"/>
</g>

<g id="lulu_run_SS_300x250_Brand_V2_psd_Asset_FINAL_FRAME__MoreThanMiles_0_Layer0_0_MEMBER_1_FILL">
<path fill="#58595B" stroke="none" d="
M 23.85 16.8
L 24.65 16.8 30.35 3.55 30.35 16.8 31.6 16.8 31.6 0.95 30.25 0.95 24.25 14.85 18.3 0.95 16.85 0.95 16.85 16.8 18.15 16.8 18.15 3.55 23.85 16.8 Z"/>
</g>

<g id="lulu_run_SS_300x250_Brand_V2_psd_Asset_FINAL_FRAME__MoreThanMiles_0_Layer0_0_MEMBER_2_FILL">
<path fill="#58595B" stroke="none" d="
M 44.05 15.35
Q 45.45 13.7 45.45 11.05 45.45 8.4 44.05 6.75 42.65 5.1 40.35 5.1 38.1 5.1 36.7 6.75 35.3 8.4 35.3 11.05 35.3 13.7 36.7 15.35 38.1 17 40.35 17 42.65 17 44.05 15.35
M 43.1 7.55
Q 44.15 8.9 44.15 11.05 44.15 13.25 43.1 14.55 42.05 15.9 40.35 15.9 38.65 15.9 37.65 14.55 36.6 13.25 36.6 11.05 36.6 8.9 37.65 7.55 38.65 6.25 40.35 6.25 42.1 6.25 43.1 7.55 Z"/>
</g>

<g id="lulu_run_SS_300x250_Brand_V2_psd_Asset_FINAL_FRAME__MoreThanMiles_0_Layer0_0_MEMBER_3_FILL">
<path fill="#58595B" stroke="none" d="
M 54.35 6.5
L 54.35 5.25
Q 53.9 5.1 53.35 5.1 52.3 5.1 51.45 5.7 50.65 6.25 50.25 7.15
L 50.25 5.3 48.95 5.3 48.95 16.8 50.25 16.8 50.25 8.8
Q 50.65 7.65 51.45 7 52.25 6.3 53.25 6.3 53.65 6.3 54.35 6.5 Z"/>
</g>

<g id="lulu_run_SS_300x250_Brand_V2_psd_Asset_FINAL_FRAME__MoreThanMiles_0_Layer0_0_MEMBER_4_FILL">
<path fill="#58595B" stroke="none" d="
M 64.75 6.7
Q 63.55 5.1 61.3 5.1 59 5.1 57.6 6.8 56.25 8.45 56.25 11.05 56.25 13.7 57.65 15.35 59.05 17 61.35 17 63.1 17 64.3 16 65.45 15.05 65.75 13.45
L 64.55 13.45
Q 63.9 15.9 61.35 15.9 59.65 15.9 58.6 14.6 57.55 13.3 57.5 11.15
L 65.95 11.15 65.95 10.7
Q 65.95 8.2 64.75 6.7
M 61.3 6.25
Q 62.9 6.25 63.8 7.45 64.6 8.5 64.65 10.15
L 57.55 10.15
Q 57.75 8.35 58.75 7.3 59.75 6.25 61.3 6.25 Z"/>
</g>

<g id="lulu_run_SS_300x250_Brand_V2_psd_Asset_FINAL_FRAME__MoreThanMiles_0_Layer0_0_MEMBER_5_FILL">
<path fill="#58595B" stroke="none" d="
M 67.1 0.95
L 67.1 2.15 72.85 2.15 72.85 16.8 74.2 16.8 74.2 2.15 80 2.15 80 0.95 67.1 0.95 Z"/>
</g>

<g id="lulu_run_SS_300x250_Brand_V2_psd_Asset_FINAL_FRAME__MoreThanMiles_0_Layer0_0_MEMBER_6_FILL">
<path fill="#58595B" stroke="none" d="
M 92.2 9.2
Q 92.2 7.3 91.2 6.25 90.15 5.1 88.25 5.1 85.85 5.1 84.55 7.15
L 84.55 0 83.3 0 83.3 16.8 84.55 16.8 84.55 8.75
Q 85 7.7 85.9 7 86.9 6.3 88 6.3 90.95 6.3 90.95 9.4
L 90.95 16.8 92.2 16.8 92.2 9.2 Z"/>
</g>

<g id="lulu_run_SS_300x250_Brand_V2_psd_Asset_FINAL_FRAME__MoreThanMiles_0_Layer0_0_MEMBER_7_FILL">
<path fill="#58595B" stroke="none" d="
M 102.2 7.05
Q 102.95 7.8 102.95 9.1
L 102.95 11.15
Q 102.55 10.65 101.7 10.3 100.8 9.9 99.85 9.9 98 9.9 96.8 10.85 95.55 11.85 95.55 13.45 95.55 15.05 96.8 16 98 16.95 99.8 16.95 101.9 16.95 102.95 15.7
L 102.95 16.8 104.2 16.8 104.2 9.05
Q 104.2 7.25 103.1 6.2 102 5.1 100.1 5.1 98.6 5.1 97.5 5.9 96.4 6.75 96.05 8.2
L 97.3 8.2
Q 97.95 6.25 100.1 6.25 101.45 6.25 102.2 7.05
M 102.95 12.7
L 102.95 14.2
Q 102.7 14.9 101.8 15.4 100.95 15.9 99.9 15.9 98.6 15.9 97.75 15.3 96.75 14.6 96.75 13.45 96.75 12.3 97.75 11.6 98.6 11 99.9 11 100.95 11 101.8 11.5 102.7 12 102.95 12.7 Z"/>
</g>

<g id="lulu_run_SS_300x250_Brand_V2_psd_Asset_FINAL_FRAME__MoreThanMiles_0_Layer0_0_MEMBER_8_FILL">
<path fill="#58595B" stroke="none" d="
M 116.3 6.25
Q 115.25 5.1 113.35 5.1 110.95 5.1 109.65 7.15
L 109.65 5.3 108.4 5.3 108.4 16.8 109.65 16.8 109.65 8.75
Q 110.1 7.7 111 7 112 6.3 113.1 6.3 116.05 6.3 116.05 9.4
L 116.05 16.8 117.3 16.8 117.3 9.2
Q 117.3 7.3 116.3 6.25 Z"/>
</g>

<g id="lulu_run_SS_300x250_Brand_V2_psd_Asset_FINAL_FRAME__MoreThanMiles_0_Layer0_0_MEMBER_9_FILL">
<path fill="#58595B" stroke="none" d="
M 136.45 0.95
L 135.1 0.95 129.1 14.85 123.15 0.95 121.7 0.95 121.7 16.8 122.95 16.8 122.95 3.55 128.7 16.8 129.5 16.8 135.2 3.55 135.2 16.8 136.45 16.8 136.45 0.95 Z"/>
</g>

<g id="lulu_run_SS_300x250_Brand_V2_psd_Asset_FINAL_FRAME__MoreThanMiles_0_Layer0_0_MEMBER_10_FILL">
<path fill="#58595B" stroke="none" d="
M 142.5 1.85
Q 142.5 1.5 142.25 1.2 142 0.95 141.6 0.95 141.25 0.95 141 1.2 140.75 1.5 140.75 1.85 140.75 2.7 141.6 2.7 142.5 2.7 142.5 1.85
M 142.25 16.8
L 142.25 5.3 140.95 5.3 140.95 16.8 142.25 16.8 Z"/>
</g>

<g id="lulu_run_SS_300x250_Brand_V2_psd_Asset_FINAL_FRAME__MoreThanMiles_0_Layer0_0_MEMBER_11_FILL">
<path fill="#58595B" stroke="none" d="
M 147.85 16.8
L 147.85 0 146.6 0 146.6 16.8 147.85 16.8 Z"/>
</g>

<g id="lulu_run_SS_300x250_Brand_V2_psd_Asset_FINAL_FRAME__MoreThanMiles_0_Layer0_0_MEMBER_12_FILL">
<path fill="#58595B" stroke="none" d="
M 161.05 11.15
L 161.05 10.7
Q 161.05 8.2 159.85 6.7 158.65 5.1 156.4 5.1 154.1 5.1 152.7 6.8 151.35 8.45 151.35 11.05 151.35 13.7 152.75 15.35 154.15 17 156.45 17 158.2 17 159.4 16 160.55 15.05 160.9 13.45
L 159.65 13.45
Q 159.4 14.6 158.5 15.25 157.65 15.9 156.45 15.9 154.75 15.9 153.7 14.6 152.65 13.3 152.6 11.15
L 161.05 11.15
M 153.85 7.3
Q 154.85 6.25 156.4 6.25 158 6.25 158.9 7.45 159.7 8.5 159.75 10.15
L 152.65 10.15
Q 152.9 8.35 153.85 7.3 Z"/>
</g>

<g id="lulu_run_SS_300x250_Brand_V2_psd_Asset_FINAL_FRAME__MoreThanMiles_0_Layer0_0_MEMBER_13_FILL">
<path fill="#58595B" stroke="none" d="
M 163.9 8.25
Q 163.9 10.4 166.6 11.15
L 168.75 11.75
Q 170.85 12.35 170.85 13.8 170.85 14.85 170.05 15.4 169.3 15.9 168.05 15.9 165.6 15.9 164.85 13.8
L 163.55 13.8
Q 163.85 15.3 165.1 16.15 166.3 17 168.05 17 169.85 17 170.95 16.15 172.1 15.3 172.1 13.75 172.1 11.4 169.2 10.65
L 167.2 10.05
Q 166.1 9.75 165.65 9.4 165.1 9 165.1 8.2 165.1 7.25 165.9 6.7 166.65 6.2 167.75 6.2 170.1 6.2 170.75 8.2
L 172 8.2
Q 171.35 5.1 167.75 5.1 166.15 5.1 165.05 5.95 163.9 6.85 163.9 8.25 Z"/>
</g>

<g id="lulu_run_SS_300x250_Brand_V2_psd_Asset_FINAL_FRAME_Run_with_us_0_Layer0_0_MEMBER_0_FILL">
<path fill="#666666" stroke="none" d="
M -33.9 -3.75
L -32.8 -3.75 -30.2 0 -28.45 0 -31.1 -3.8
Q -28.75 -4.1 -28.75 -6.45 -28.75 -7.75 -29.6 -8.5 -30.45 -9.2 -31.9 -9.2
L -35.45 -9.2 -35.45 0 -33.9 0 -33.9 -3.75
M -33.9 -5.05
L -33.9 -7.85 -31.95 -7.85
Q -30.3 -7.85 -30.3 -6.45 -30.3 -5.05 -31.95 -5.05
L -33.9 -5.05 Z"/>
</g>

<g id="lulu_run_SS_300x250_Brand_V2_psd_Asset_FINAL_FRAME_Run_with_us_0_Layer0_0_MEMBER_1_FILL">
<path fill="#666666" stroke="none" d="
M -26.95 -2.3
Q -26.95 -1.2 -26.35 -0.55 -25.7 0.15 -24.6 0.15 -23.4 0.15 -22.8 -0.65
L -22.8 0 -21.3 0 -21.3 -6.65 -22.8 -6.65 -22.8 -2.3
Q -23.05 -1.2 -24.2 -1.2 -25.45 -1.2 -25.45 -2.6
L -25.45 -6.65 -26.95 -6.65 -26.95 -2.3 Z"/>
</g>

<g id="lulu_run_SS_300x250_Brand_V2_psd_Asset_FINAL_FRAME_Run_with_us_0_Layer0_0_MEMBER_2_FILL">
<path fill="#666666" stroke="none" d="
M -17.55 -6.65
L -19.05 -6.65 -19.05 0 -17.55 0 -17.55 -4.4
Q -17.3 -5.45 -16.2 -5.45 -14.9 -5.45 -14.9 -4.1
L -14.9 0 -13.4 0 -13.4 -4.35
Q -13.4 -5.45 -14 -6.1 -14.65 -6.8 -15.75 -6.8 -16.9 -6.8 -17.55 -6.05
L -17.55 -6.65 Z"/>
</g>

<g id="lulu_run_SS_300x250_Brand_V2_psd_Asset_FINAL_FRAME_Run_with_us_0_Layer0_0_MEMBER_3_FILL">
<path fill="#666666" stroke="none" d="
M -1.75 -1.95
L -2.9 -6.65 -4.3 -6.65 -5.45 -1.95 -6.75 -6.65 -8.25 -6.65 -6.3 0 -4.8 0 -3.6 -4.65 -2.45 0 -0.95 0 1 -6.65 -0.45 -6.65 -1.75 -1.95 Z"/>
</g>

<g id="lulu_run_SS_300x250_Brand_V2_psd_Asset_FINAL_FRAME_Run_with_us_0_Layer0_0_MEMBER_4_FILL">
<path fill="#666666" stroke="none" d="
M 4.05 -6.65
L 2.55 -6.65 2.55 0 4.05 0 4.05 -6.65
M 3.3 -9.6
Q 2.95 -9.6 2.7 -9.35 2.4 -9.05 2.4 -8.65 2.4 -8.3 2.7 -8 2.95 -7.75 3.3 -7.75 3.7 -7.75 3.95 -8 4.25 -8.3 4.25 -8.65 4.25 -9.05 3.95 -9.35 3.7 -9.6 3.3 -9.6 Z"/>
</g>

<g id="lulu_run_SS_300x250_Brand_V2_psd_Asset_FINAL_FRAME_Run_with_us_0_Layer0_0_MEMBER_5_FILL">
<path fill="#666666" stroke="none" d="
M 6.65 -6.65
L 5.6 -6.65 5.6 -5.4 6.65 -5.4 6.65 -1.8
Q 6.65 0.15 8.7 0.15 9.4 0.15 9.8 -0.1
L 9.8 -1.45
Q 9.45 -1.2 8.95 -1.2 8.15 -1.2 8.15 -1.95
L 8.15 -5.4 9.65 -5.4 9.65 -6.65 8.15 -6.65 8.15 -8.45 6.65 -8.45 6.65 -6.65 Z"/>
</g>

<g id="lulu_run_SS_300x250_Brand_V2_psd_Asset_FINAL_FRAME_Run_with_us_0_Layer0_0_MEMBER_6_FILL">
<path fill="#666666" stroke="none" d="
M 13.2 -9.75
L 11.7 -9.75 11.7 0 13.2 0 13.2 -4.4
Q 13.45 -5.45 14.6 -5.45 15.85 -5.45 15.85 -4.1
L 15.85 0 17.35 0 17.35 -4.35
Q 17.35 -5.45 16.75 -6.1 16.1 -6.8 15 -6.8 13.85 -6.8 13.2 -6.05
L 13.2 -9.75 Z"/>
</g>

<g id="lulu_run_SS_300x250_Brand_V2_psd_Asset_FINAL_FRAME_Run_with_us_0_Layer0_0_MEMBER_7_FILL">
<path fill="#666666" stroke="none" d="
M 23.1 -2.3
Q 23.1 -1.2 23.7 -0.55 24.35 0.15 25.45 0.15 26.55 0.15 27.25 -0.65
L 27.25 0 28.75 0 28.75 -6.65 27.25 -6.65 27.25 -2.3
Q 26.95 -1.2 25.85 -1.2 24.6 -1.2 24.6 -2.6
L 24.6 -6.65 23.1 -6.65 23.1 -2.3 Z"/>
</g>

<g id="lulu_run_SS_300x250_Brand_V2_psd_Asset_FINAL_FRAME_Run_with_us_0_Layer0_0_MEMBER_8_FILL">
<path fill="#666666" stroke="none" d="
M 33.2 -6.8
Q 32.1 -6.8 31.4 -6.2 30.7 -5.6 30.7 -4.7 30.7 -3.25 32.35 -2.9
L 33.7 -2.55
Q 34.5 -2.4 34.5 -1.85 34.5 -1.1 33.35 -1.1 32.25 -1.1 32.05 -1.9
L 30.5 -1.9
Q 30.65 -0.95 31.4 -0.4 32.2 0.15 33.35 0.15 34.5 0.15 35.2 -0.4 35.95 -1 35.95 -2 35.95 -3.45 34.2 -3.85
L 32.8 -4.2
Q 32.1 -4.35 32.1 -4.8 32.1 -5.6 33.2 -5.6 34.15 -5.6 34.4 -4.85
L 35.85 -4.85
Q 35.55 -6.8 33.2 -6.8 Z"/>
</g>

<g id="lulu_run_SS_300x250_Brand_V2_psd_Asset_FINAL_FRAME_lululemon_com_0_Layer0_0_MEMBER_0_FILL">
<path fill="#666666" stroke="none" d="
M -42.3 -9.75
L -43.8 -9.75 -43.8 0 -42.3 0 -42.3 -9.75 Z"/>
</g>

<g id="lulu_run_SS_300x250_Brand_V2_psd_Asset_FINAL_FRAME_lululemon_com_0_Layer0_0_MEMBER_1_FILL">
<path fill="#666666" stroke="none" d="
M -40.15 -2.3
Q -40.15 -1.2 -39.55 -0.55 -38.9 0.15 -37.8 0.15 -36.7 0.15 -36 -0.65
L -36 0 -34.5 0 -34.5 -6.65 -36 -6.65 -36 -2.3
Q -36.3 -1.2 -37.4 -1.2 -38.65 -1.2 -38.65 -2.6
L -38.65 -6.65 -40.15 -6.65 -40.15 -2.3 Z"/>
</g>

<g id="lulu_run_SS_300x250_Brand_V2_psd_Asset_FINAL_FRAME_lululemon_com_0_Layer0_0_MEMBER_2_FILL">
<path fill="#666666" stroke="none" d="
M -30.8 -9.75
L -32.3 -9.75 -32.3 0 -30.8 0 -30.8 -9.75 Z"/>
</g>

<g id="lulu_run_SS_300x250_Brand_V2_psd_Asset_FINAL_FRAME_lululemon_com_0_Layer0_0_MEMBER_3_FILL">
<path fill="#666666" stroke="none" d="
M -28.65 -2.3
Q -28.65 -1.2 -28.05 -0.55 -27.4 0.15 -26.3 0.15 -25.2 0.15 -24.5 -0.65
L -24.5 0 -23 0 -23 -6.65 -24.5 -6.65 -24.5 -2.3
Q -24.8 -1.2 -25.9 -1.2 -27.15 -1.2 -27.15 -2.6
L -27.15 -6.65 -28.65 -6.65 -28.65 -2.3 Z"/>
</g>

<g id="lulu_run_SS_300x250_Brand_V2_psd_Asset_FINAL_FRAME_lululemon_com_0_Layer0_0_MEMBER_4_FILL">
<path fill="#666666" stroke="none" d="
M -19.3 -9.75
L -20.8 -9.75 -20.8 0 -19.3 0 -19.3 -9.75 Z"/>
</g>

<g id="lulu_run_SS_300x250_Brand_V2_psd_Asset_FINAL_FRAME_lululemon_com_0_Layer0_0_MEMBER_5_FILL">
<path fill="#666666" stroke="none" d="
M -17.5 -3.3
Q -17.5 -1.75 -16.6 -0.8 -15.75 0.15 -14.35 0.15 -11.95 0.15 -11.55 -2.05
L -12.95 -2.05
Q -13.15 -1.1 -14.35 -1.1 -15.05 -1.1 -15.55 -1.6 -16 -2.1 -16.05 -3
L -11.5 -3 -11.5 -3.5
Q -11.5 -5 -12.25 -5.9 -13 -6.8 -14.4 -6.8 -15.75 -6.8 -16.6 -5.8 -17.5 -4.8 -17.5 -3.3
M -14.4 -5.55
Q -13 -5.55 -13 -4.1
L -16 -4.1
Q -15.7 -5.55 -14.4 -5.55 Z"/>
</g>

<g id="lulu_run_SS_300x250_Brand_V2_psd_Asset_FINAL_FRAME_lululemon_com_0_Layer0_0_MEMBER_6_FILL">
<path fill="#666666" stroke="none" d="
M -8.25 -6.65
L -9.75 -6.65 -9.75 0 -8.25 0 -8.25 -4.45
Q -8.05 -5.45 -7.05 -5.45 -5.95 -5.45 -5.95 -4.1
L -5.95 0 -4.45 0 -4.45 -4.45
Q -4.3 -5.45 -3.3 -5.45 -2.2 -5.45 -2.2 -4.1
L -2.2 0 -0.7 0 -0.7 -4.35
Q -0.7 -5.5 -1.25 -6.15 -1.85 -6.8 -2.85 -6.8 -4.05 -6.8 -4.8 -5.9 -5.35 -6.8 -6.6 -6.8 -7.7 -6.8 -8.25 -6.1
L -8.25 -6.65 Z"/>
</g>

<g id="lulu_run_SS_300x250_Brand_V2_psd_Asset_FINAL_FRAME_lululemon_com_0_Layer0_0_MEMBER_7_FILL">
<path fill="#666666" stroke="none" d="
M 1.9 -5.8
Q 1 -4.85 1 -3.35 1 -1.8 1.9 -0.85 2.75 0.15 4.15 0.15 5.55 0.15 6.45 -0.85 7.35 -1.8 7.35 -3.35 7.35 -4.85 6.45 -5.8 5.55 -6.8 4.15 -6.8 2.75 -6.8 1.9 -5.8
M 2.95 -4.9
Q 3.4 -5.5 4.15 -5.5 4.95 -5.5 5.4 -4.9 5.85 -4.3 5.85 -3.35 5.85 -1.15 4.15 -1.15 3.4 -1.15 2.95 -1.75 2.5 -2.35 2.5 -3.35 2.5 -4.3 2.95 -4.9 Z"/>
</g>

<g id="lulu_run_SS_300x250_Brand_V2_psd_Asset_FINAL_FRAME_lululemon_com_0_Layer0_0_MEMBER_8_FILL">
<path fill="#666666" stroke="none" d="
M 10.6 -6.65
L 9.1 -6.65 9.1 0 10.6 0 10.6 -4.4
Q 10.85 -5.45 12 -5.45 13.25 -5.45 13.25 -4.1
L 13.25 0 14.75 0 14.75 -4.35
Q 14.75 -5.45 14.15 -6.1 13.5 -6.8 12.4 -6.8 11.25 -6.8 10.6 -6.05
L 10.6 -6.65 Z"/>
</g>

<g id="lulu_run_SS_300x250_Brand_V2_psd_Asset_FINAL_FRAME_lululemon_com_0_Layer0_0_MEMBER_9_FILL">
<path fill="#666666" stroke="none" d="
M 16.75 -1.65
Q 16.45 -1.35 16.45 -0.95 16.45 -0.5 16.75 -0.2 17.05 0.1 17.45 0.1 17.9 0.1 18.2 -0.2 18.5 -0.5 18.5 -0.95 18.5 -1.35 18.2 -1.65 17.9 -1.95 17.45 -1.95 17.05 -1.95 16.75 -1.65 Z"/>
</g>

<g id="lulu_run_SS_300x250_Brand_V2_psd_Asset_FINAL_FRAME_lululemon_com_0_Layer0_0_MEMBER_10_FILL">
<path fill="#666666" stroke="none" d="
M 24 -2.1
Q 23.75 -1.15 22.7 -1.15 21.95 -1.15 21.55 -1.75 21.1 -2.35 21.1 -3.35 21.1 -4.3 21.55 -4.9 21.95 -5.5 22.7 -5.5 23.75 -5.5 24 -4.55
L 25.5 -4.55
Q 25.15 -6.8 22.7 -6.8 21.35 -6.8 20.5 -5.85 19.6 -4.9 19.6 -3.35 19.6 -1.8 20.5 -0.8 21.35 0.15 22.7 0.15 25.15 0.15 25.5 -2.1
L 24 -2.1 Z"/>
</g>

<g id="lulu_run_SS_300x250_Brand_V2_psd_Asset_FINAL_FRAME_lululemon_com_0_Layer0_0_MEMBER_11_FILL">
<path fill="#666666" stroke="none" d="
M 26.7 -3.35
Q 26.7 -1.8 27.6 -0.85 28.5 0.15 29.9 0.15 31.3 0.15 32.15 -0.85 33.05 -1.8 33.05 -3.35 33.05 -4.85 32.15 -5.8 31.3 -6.8 29.9 -6.8 28.5 -6.8 27.6 -5.8 26.7 -4.85 26.7 -3.35
M 28.65 -4.9
Q 29.1 -5.5 29.9 -5.5 30.65 -5.5 31.1 -4.9 31.55 -4.3 31.55 -3.35 31.55 -1.15 29.9 -1.15 28.2 -1.15 28.2 -3.35 28.2 -4.3 28.65 -4.9 Z"/>
</g>

<g id="lulu_run_SS_300x250_Brand_V2_psd_Asset_FINAL_FRAME_lululemon_com_0_Layer0_0_MEMBER_12_FILL">
<path fill="#666666" stroke="none" d="
M 37.5 -5.45
Q 38.6 -5.45 38.6 -4.1
L 38.6 0 40.1 0 40.1 -4.45
Q 40.3 -5.45 41.3 -5.45 42.4 -5.45 42.4 -4.1
L 42.4 0 43.9 0 43.9 -4.35
Q 43.9 -5.5 43.35 -6.15 42.75 -6.8 41.7 -6.8 40.5 -6.8 39.75 -5.9 39.2 -6.8 38 -6.8 36.9 -6.8 36.3 -6.1
L 36.3 -6.65 34.8 -6.65 34.8 0 36.3 0 36.3 -4.45
Q 36.5 -5.45 37.5 -5.45 Z"/>
</g>
</defs>

<g transform="matrix( 1, 0, 0, 1, 0,0) ">
<g transform="matrix( 1, 0, 0, 1, 31,78) ">
<g transform="matrix( 1.35528564453125, 0, 0, 1.35528564453125, -1.1,0.7) ">
<use xlink:href="#lulu_run_SS_300x250_Brand_V2_psd_Asset_FINAL_FRAME__MoreThanMiles_0_Layer0_0_MEMBER_0_FILL"/>
</g>

<g transform="matrix( 1.35528564453125, 0, 0, 1.35528564453125, -1.1,0.7) ">
<use xlink:href="#lulu_run_SS_300x250_Brand_V2_psd_Asset_FINAL_FRAME__MoreThanMiles_0_Layer0_0_MEMBER_1_FILL"/>
</g>

<g transform="matrix( 1.35528564453125, 0, 0, 1.35528564453125, -1.1,0.7) ">
<use xlink:href="#lulu_run_SS_300x250_Brand_V2_psd_Asset_FINAL_FRAME__MoreThanMiles_0_Layer0_0_MEMBER_2_FILL"/>
</g>

<g transform="matrix( 1.35528564453125, 0, 0, 1.35528564453125, -1.1,0.7) ">
<use xlink:href="#lulu_run_SS_300x250_Brand_V2_psd_Asset_FINAL_FRAME__MoreThanMiles_0_Layer0_0_MEMBER_3_FILL"/>
</g>

<g transform="matrix( 1.35528564453125, 0, 0, 1.35528564453125, -1.1,0.7) ">
<use xlink:href="#lulu_run_SS_300x250_Brand_V2_psd_Asset_FINAL_FRAME__MoreThanMiles_0_Layer0_0_MEMBER_4_FILL"/>
</g>

<g transform="matrix( 1.35528564453125, 0, 0, 1.35528564453125, -1.1,0.7) ">
<use xlink:href="#lulu_run_SS_300x250_Brand_V2_psd_Asset_FINAL_FRAME__MoreThanMiles_0_Layer0_0_MEMBER_5_FILL"/>
</g>

<g transform="matrix( 1.35528564453125, 0, 0, 1.35528564453125, -1.1,0.7) ">
<use xlink:href="#lulu_run_SS_300x250_Brand_V2_psd_Asset_FINAL_FRAME__MoreThanMiles_0_Layer0_0_MEMBER_6_FILL"/>
</g>

<g transform="matrix( 1.35528564453125, 0, 0, 1.35528564453125, -1.1,0.7) ">
<use xlink:href="#lulu_run_SS_300x250_Brand_V2_psd_Asset_FINAL_FRAME__MoreThanMiles_0_Layer0_0_MEMBER_7_FILL"/>
</g>

<g transform="matrix( 1.35528564453125, 0, 0, 1.35528564453125, -1.1,0.7) ">
<use xlink:href="#lulu_run_SS_300x250_Brand_V2_psd_Asset_FINAL_FRAME__MoreThanMiles_0_Layer0_0_MEMBER_8_FILL"/>
</g>

<g transform="matrix( 1.35528564453125, 0, 0, 1.35528564453125, -1.1,0.7) ">
<use xlink:href="#lulu_run_SS_300x250_Brand_V2_psd_Asset_FINAL_FRAME__MoreThanMiles_0_Layer0_0_MEMBER_9_FILL"/>
</g>

<g transform="matrix( 1.35528564453125, 0, 0, 1.35528564453125, -1.1,0.7) ">
<use xlink:href="#lulu_run_SS_300x250_Brand_V2_psd_Asset_FINAL_FRAME__MoreThanMiles_0_Layer0_0_MEMBER_10_FILL"/>
</g>

<g transform="matrix( 1.35528564453125, 0, 0, 1.35528564453125, -1.1,0.7) ">
<use xlink:href="#lulu_run_SS_300x250_Brand_V2_psd_Asset_FINAL_FRAME__MoreThanMiles_0_Layer0_0_MEMBER_11_FILL"/>
</g>

<g transform="matrix( 1.35528564453125, 0, 0, 1.35528564453125, -1.1,0.7) ">
<use xlink:href="#lulu_run_SS_300x250_Brand_V2_psd_Asset_FINAL_FRAME__MoreThanMiles_0_Layer0_0_MEMBER_12_FILL"/>
</g>

<g transform="matrix( 1.35528564453125, 0, 0, 1.35528564453125, -1.1,0.7) ">
<use xlink:href="#lulu_run_SS_300x250_Brand_V2_psd_Asset_FINAL_FRAME__MoreThanMiles_0_Layer0_0_MEMBER_13_FILL"/>
</g>
</g>

<g transform="matrix( 1, 0, 0, 1, 115,163) ">
<g transform="matrix( 1, 0, 0, 1, 36.2,9.6) ">
<use xlink:href="#lulu_run_SS_300x250_Brand_V2_psd_Asset_FINAL_FRAME_Run_with_us_0_Layer0_0_MEMBER_0_FILL"/>
</g>

<g transform="matrix( 1, 0, 0, 1, 36.2,9.6) ">
<use xlink:href="#lulu_run_SS_300x250_Brand_V2_psd_Asset_FINAL_FRAME_Run_with_us_0_Layer0_0_MEMBER_1_FILL"/>
</g>

<g transform="matrix( 1, 0, 0, 1, 36.2,9.6) ">
<use xlink:href="#lulu_run_SS_300x250_Brand_V2_psd_Asset_FINAL_FRAME_Run_with_us_0_Layer0_0_MEMBER_2_FILL"/>
</g>

<g transform="matrix( 1, 0, 0, 1, 36.2,9.6) ">
<use xlink:href="#lulu_run_SS_300x250_Brand_V2_psd_Asset_FINAL_FRAME_Run_with_us_0_Layer0_0_MEMBER_3_FILL"/>
</g>

<g transform="matrix( 1, 0, 0, 1, 36.2,9.6) ">
<use xlink:href="#lulu_run_SS_300x250_Brand_V2_psd_Asset_FINAL_FRAME_Run_with_us_0_Layer0_0_MEMBER_4_FILL"/>
</g>

<g transform="matrix( 1, 0, 0, 1, 36.2,9.6) ">
<use xlink:href="#lulu_run_SS_300x250_Brand_V2_psd_Asset_FINAL_FRAME_Run_with_us_0_Layer0_0_MEMBER_5_FILL"/>
</g>

<g transform="matrix( 1, 0, 0, 1, 36.2,9.6) ">
<use xlink:href="#lulu_run_SS_300x250_Brand_V2_psd_Asset_FINAL_FRAME_Run_with_us_0_Layer0_0_MEMBER_6_FILL"/>
</g>

<g transform="matrix( 1, 0, 0, 1, 36.2,9.6) ">
<use xlink:href="#lulu_run_SS_300x250_Brand_V2_psd_Asset_FINAL_FRAME_Run_with_us_0_Layer0_0_MEMBER_7_FILL"/>
</g>

<g transform="matrix( 1, 0, 0, 1, 36.2,9.6) ">
<use xlink:href="#lulu_run_SS_300x250_Brand_V2_psd_Asset_FINAL_FRAME_Run_with_us_0_Layer0_0_MEMBER_8_FILL"/>
</g>
</g>

<g transform="matrix( 1, 0, 0, 1, 107,226) ">
<g transform="matrix( 1, 0, 0, 1, 44.2,9.6) ">
<use xlink:href="#lulu_run_SS_300x250_Brand_V2_psd_Asset_FINAL_FRAME_lululemon_com_0_Layer0_0_MEMBER_0_FILL"/>
</g>

<g transform="matrix( 1, 0, 0, 1, 44.2,9.6) ">
<use xlink:href="#lulu_run_SS_300x250_Brand_V2_psd_Asset_FINAL_FRAME_lululemon_com_0_Layer0_0_MEMBER_1_FILL"/>
</g>

<g transform="matrix( 1, 0, 0, 1, 44.2,9.6) ">
<use xlink:href="#lulu_run_SS_300x250_Brand_V2_psd_Asset_FINAL_FRAME_lululemon_com_0_Layer0_0_MEMBER_2_FILL"/>
</g>

<g transform="matrix( 1, 0, 0, 1, 44.2,9.6) ">
<use xlink:href="#lulu_run_SS_300x250_Brand_V2_psd_Asset_FINAL_FRAME_lululemon_com_0_Layer0_0_MEMBER_3_FILL"/>
</g>

<g transform="matrix( 1, 0, 0, 1, 44.2,9.6) ">
<use xlink:href="#lulu_run_SS_300x250_Brand_V2_psd_Asset_FINAL_FRAME_lululemon_com_0_Layer0_0_MEMBER_4_FILL"/>
</g>

<g transform="matrix( 1, 0, 0, 1, 44.2,9.6) ">
<use xlink:href="#lulu_run_SS_300x250_Brand_V2_psd_Asset_FINAL_FRAME_lululemon_com_0_Layer0_0_MEMBER_5_FILL"/>
</g>

<g transform="matrix( 1, 0, 0, 1, 44.2,9.6) ">
<use xlink:href="#lulu_run_SS_300x250_Brand_V2_psd_Asset_FINAL_FRAME_lululemon_com_0_Layer0_0_MEMBER_6_FILL"/>
</g>

<g transform="matrix( 1, 0, 0, 1, 44.2,9.6) ">
<use xlink:href="#lulu_run_SS_300x250_Brand_V2_psd_Asset_FINAL_FRAME_lululemon_com_0_Layer0_0_MEMBER_7_FILL"/>
</g>

<g transform="matrix( 1, 0, 0, 1, 44.2,9.6) ">
<use xlink:href="#lulu_run_SS_300x250_Brand_V2_psd_Asset_FINAL_FRAME_lululemon_com_0_Layer0_0_MEMBER_8_FILL"/>
</g>

<g transform="matrix( 1, 0, 0, 1, 44.2,9.6) ">
<use xlink:href="#lulu_run_SS_300x250_Brand_V2_psd_Asset_FINAL_FRAME_lululemon_com_0_Layer0_0_MEMBER_9_FILL"/>
</g>

<g transform="matrix( 1, 0, 0, 1, 44.2,9.6) ">
<use xlink:href="#lulu_run_SS_300x250_Brand_V2_psd_Asset_FINAL_FRAME_lululemon_com_0_Layer0_0_MEMBER_10_FILL"/>
</g>

<g transform="matrix( 1, 0, 0, 1, 44.2,9.6) ">
<use xlink:href="#lulu_run_SS_300x250_Brand_V2_psd_Asset_FINAL_FRAME_lululemon_com_0_Layer0_0_MEMBER_11_FILL"/>
</g>

<g transform="matrix( 1, 0, 0, 1, 44.2,9.6) ">
<use xlink:href="#lulu_run_SS_300x250_Brand_V2_psd_Asset_FINAL_FRAME_lululemon_com_0_Layer0_0_MEMBER_12_FILL"/>
</g>
</g>
</g>
</svg>
