
<svg xmlns="http://www.w3.org/2000/svg" version="1.1" xmlns:xlink="http://www.w3.org/1999/xlink" preserveAspectRatio="none" x="0px" y="0px" width="300px" height="600px" viewBox="0 0 300 600">
<defs>
<g id="SKYSCRAPER_300_X_600_PRODUCT_psd_Asset_FRAME_2_SO_YOU_CAN_RUN_free_0_Layer0_0_MEMBER_0_FILL">
<path fill="#FFFFFF" stroke="none" d="
M -72.9 -15
Q -75.2 -15 -76.7 -13.7 -78.2 -12.45 -78.2 -10.45 -78.2 -7.3 -74.45 -6.4
L -71.8 -5.8
Q -70 -5.35 -70 -4.15 -70 -3.3 -70.7 -2.8 -71.35 -2.3 -72.5 -2.3 -74.8 -2.3 -75.4 -4.2
L -78.6 -4.2
Q -78.2 -2.1 -76.55 -0.9 -74.95 0.25 -72.45 0.25 -70.05 0.25 -68.55 -1 -67 -2.25 -67 -4.35 -67 -7.6 -70.85 -8.5
L -73.55 -9.1
Q -75.2 -9.55 -75.2 -10.75 -75.2 -11.55 -74.55 -12 -73.9 -12.45 -72.85 -12.45 -70.75 -12.45 -70.15 -10.7
L -67.1 -10.7
Q -67.5 -12.65 -68.95 -13.8 -70.45 -15 -72.9 -15 Z"/>
</g>

<g id="SKYSCRAPER_300_X_600_PRODUCT_psd_Asset_FRAME_2_SO_YOU_CAN_RUN_free_0_Layer0_0_MEMBER_1_FILL">
<path fill="#FFFFFF" stroke="none" d="
M -55 -15
Q -58.05 -15 -60 -12.85 -61.95 -10.7 -61.95 -7.35 -61.95 -4.05 -60 -1.9 -58.05 0.25 -55 0.25 -51.95 0.25 -49.95 -1.9 -48 -4.05 -48 -7.35 -48 -10.7 -49.95 -12.85 -51.95 -15 -55 -15
M -52.15 -10.9
Q -51.1 -9.55 -51.1 -7.35 -51.1 -5.2 -52.15 -3.85 -53.25 -2.5 -55 -2.5 -56.75 -2.5 -57.8 -3.85 -58.85 -5.2 -58.85 -7.35 -58.85 -9.55 -57.8 -10.9 -56.75 -12.25 -55 -12.25 -53.25 -12.25 -52.15 -10.9 Z"/>
</g>

<g id="SKYSCRAPER_300_X_600_PRODUCT_psd_Asset_FRAME_2_SO_YOU_CAN_RUN_free_0_Layer0_0_MEMBER_2_FILL">
<path fill="#FFFFFF" stroke="none" d="
M -24.3 -14.75
L -27.85 -8.5 -31.4 -14.75 -34.75 -14.75 -29.45 -5.6 -29.45 0 -26.4 0 -26.4 -5.6 -21.05 -14.75 -24.3 -14.75 Z"/>
</g>

<g id="SKYSCRAPER_300_X_600_PRODUCT_psd_Asset_FRAME_2_SO_YOU_CAN_RUN_free_0_Layer0_0_MEMBER_3_FILL">
<path fill="#FFFFFF" stroke="none" d="
M -10.6 -15
Q -13.65 -15 -15.6 -12.85 -17.55 -10.7 -17.55 -7.35 -17.55 -4.05 -15.6 -1.9 -13.65 0.25 -10.6 0.25 -7.55 0.25 -5.55 -1.9 -3.6 -4.05 -3.6 -7.35 -3.6 -10.7 -5.55 -12.85 -7.55 -15 -10.6 -15
M -13.35 -10.9
Q -12.3 -12.25 -10.6 -12.25 -8.85 -12.25 -7.75 -10.9 -6.7 -9.55 -6.7 -7.35 -6.7 -5.2 -7.75 -3.85 -8.85 -2.5 -10.6 -2.5 -12.3 -2.5 -13.35 -3.85 -14.4 -5.2 -14.4 -7.35 -14.4 -9.55 -13.35 -10.9 Z"/>
</g>

<g id="SKYSCRAPER_300_X_600_PRODUCT_psd_Asset_FRAME_2_SO_YOU_CAN_RUN_free_0_Layer0_0_MEMBER_4_FILL">
<path fill="#FFFFFF" stroke="none" d="
M 14.15 -14.75
L 11.1 -14.75 11.1 -6.25
Q 11.1 -2.5 8.05 -2.5 5 -2.5 5 -6.25
L 5 -14.75 1.9 -14.75 1.9 -5.95
Q 1.9 -2.95 3.6 -1.3 5.2 0.25 8.05 0.25 10.9 0.25 12.5 -1.3 14.15 -2.95 14.15 -5.95
L 14.15 -14.75 Z"/>
</g>

<g id="SKYSCRAPER_300_X_600_PRODUCT_psd_Asset_FRAME_2_SO_YOU_CAN_RUN_free_0_Layer0_0_MEMBER_5_FILL">
<path fill="#FFFFFF" stroke="none" d="
M 39.4 -13.6
Q 37.75 -15 35.2 -15 32.2 -15 30.3 -12.9 28.35 -10.75 28.35 -7.35 28.35 -4 30.3 -1.85 32.2 0.25 35.2 0.25 37.75 0.25 39.4 -1.15 41 -2.5 41.4 -4.8
L 38.35 -4.8
Q 37.45 -2.5 35.2 -2.5 33.5 -2.5 32.45 -3.9 31.45 -5.25 31.45 -7.35 31.45 -9.55 32.45 -10.85 33.45 -12.25 35.2 -12.25 37.45 -12.25 38.35 -10
L 41.4 -10
Q 41 -12.3 39.4 -13.6 Z"/>
</g>

<g id="SKYSCRAPER_300_X_600_PRODUCT_psd_Asset_FRAME_2_SO_YOU_CAN_RUN_free_0_Layer0_0_MEMBER_6_FILL">
<path fill="#FFFFFF" stroke="none" d="
M 54.2 -14.75
L 51.15 -14.75 45.55 0 48.6 0 49.9 -3.55 55.4 -3.55 56.75 0 59.85 0 54.2 -14.75
M 50.85 -6.15
L 52.65 -11.05 54.45 -6.15 50.85 -6.15 Z"/>
</g>

<g id="SKYSCRAPER_300_X_600_PRODUCT_psd_Asset_FRAME_2_SO_YOU_CAN_RUN_free_0_Layer0_0_MEMBER_7_FILL">
<path fill="#FFFFFF" stroke="none" d="
M 68.1 -14.75
L 65.25 -14.75 65.25 0 68.2 0 68.2 -9.8 75.15 0 77.55 0 77.55 -14.75 74.6 -14.75 74.6 -5.4 68.1 -14.75 Z"/>
</g>

<g id="SKYSCRAPER_300_X_600_PRODUCT_psd_Asset_FRAME_2_SO_YOU_CAN_RUN_free_0_Layer0_0_MEMBER_8_FILL">
<path fill="#FFFFFF" stroke="none" d="
M -54.45 7.25
L -60.55 7.25 -60.55 22 -57.5 22 -57.5 16.5 -55.9 16.5 -52.25 22 -48.8 22 -52.65 16.3
Q -49.3 15.5 -49.3 11.95 -49.3 9.7 -50.7 8.45 -52.1 7.25 -54.45 7.25
M -54.65 9.9
Q -52.35 9.9 -52.35 11.95 -52.35 14 -54.65 14
L -57.5 14 -57.5 9.9 -54.65 9.9 Z"/>
</g>

<g id="SKYSCRAPER_300_X_600_PRODUCT_psd_Asset_FRAME_2_SO_YOU_CAN_RUN_free_0_Layer0_0_MEMBER_9_FILL">
<path fill="#FFFFFF" stroke="none" d="
M -34.45 15.75
Q -34.45 19.5 -37.5 19.5 -40.55 19.5 -40.55 15.75
L -40.55 7.25 -43.65 7.25 -43.65 16.05
Q -43.65 19.05 -41.95 20.7 -40.35 22.25 -37.5 22.25 -34.7 22.25 -33.1 20.7 -31.4 19.05 -31.4 16.05
L -31.4 7.25 -34.45 7.25 -34.45 15.75 Z"/>
</g>

<g id="SKYSCRAPER_300_X_600_PRODUCT_psd_Asset_FRAME_2_SO_YOU_CAN_RUN_free_0_Layer0_0_MEMBER_10_FILL">
<path fill="#FFFFFF" stroke="none" d="
M -12.85 22
L -12.85 7.25 -15.8 7.25 -15.8 16.6 -22.3 7.25 -25.2 7.25 -25.2 22 -22.25 22 -22.25 12.2 -15.25 22 -12.85 22 Z"/>
</g>

<g id="SKYSCRAPER_300_X_600_PRODUCT_psd_Asset_FRAME_2_SO_YOU_CAN_RUN_free_0_Layer0_0_MEMBER_11_FILL">
<path fill="#FFFFFF" stroke="none" d="
M 12.1 9.95
L 12.1 7.25 2.25 7.25 2.25 22 5.3 22 5.3 16.35 11.6 16.35 11.6 13.7 5.3 13.7 5.3 9.95 12.1 9.95 Z"/>
</g>

<g id="SKYSCRAPER_300_X_600_PRODUCT_psd_Asset_FRAME_2_SO_YOU_CAN_RUN_free_0_Layer0_0_MEMBER_12_FILL">
<path fill="#FFFFFF" stroke="none" d="
M 27.7 8.45
Q 26.3 7.25 23.95 7.25
L 17.9 7.25 17.9 22 20.95 22 20.95 16.5 22.55 16.5 26.2 22 29.65 22 25.75 16.3
Q 29.1 15.5 29.1 11.95 29.1 9.7 27.7 8.45
M 23.75 9.9
Q 26.1 9.9 26.1 11.95 26.1 14 23.75 14
L 20.95 14 20.95 9.9 23.75 9.9 Z"/>
</g>

<g id="SKYSCRAPER_300_X_600_PRODUCT_psd_Asset_FRAME_2_SO_YOU_CAN_RUN_free_0_Layer0_0_MEMBER_13_FILL">
<path fill="#FFFFFF" stroke="none" d="
M 45 9.95
L 45 7.25 35 7.25 35 22 45 22 45 19.3 38.05 19.3 38.05 15.8 44.35 15.8 44.35 13.15 38.05 13.15 38.05 9.95 45 9.95 Z"/>
</g>

<g id="SKYSCRAPER_300_X_600_PRODUCT_psd_Asset_FRAME_2_SO_YOU_CAN_RUN_free_0_Layer0_0_MEMBER_14_FILL">
<path fill="#FFFFFF" stroke="none" d="
M 61 9.95
L 61 7.25 51 7.25 51 22 61 22 61 19.3 54 19.3 54 15.8 60.35 15.8 60.35 13.15 54 13.15 54 9.95 61 9.95 Z"/>
</g>
</defs>

<g transform="matrix( 1, 0, 0, 1, -833,-678) ">
<g transform="matrix( 1, 0, 0, 1, 865,886) ">
<g transform="matrix( 1.500823974609375, 0, 0, 1.5036163330078125, 118.45,23.1) ">
<use xlink:href="#SKYSCRAPER_300_X_600_PRODUCT_psd_Asset_FRAME_2_SO_YOU_CAN_RUN_free_0_Layer0_0_MEMBER_0_FILL"/>
</g>

<g transform="matrix( 1.500823974609375, 0, 0, 1.5036163330078125, 118.45,23.1) ">
<use xlink:href="#SKYSCRAPER_300_X_600_PRODUCT_psd_Asset_FRAME_2_SO_YOU_CAN_RUN_free_0_Layer0_0_MEMBER_1_FILL"/>
</g>

<g transform="matrix( 1.500823974609375, 0, 0, 1.5036163330078125, 118.45,23.1) ">
<use xlink:href="#SKYSCRAPER_300_X_600_PRODUCT_psd_Asset_FRAME_2_SO_YOU_CAN_RUN_free_0_Layer0_0_MEMBER_2_FILL"/>
</g>

<g transform="matrix( 1.500823974609375, 0, 0, 1.5036163330078125, 118.45,23.1) ">
<use xlink:href="#SKYSCRAPER_300_X_600_PRODUCT_psd_Asset_FRAME_2_SO_YOU_CAN_RUN_free_0_Layer0_0_MEMBER_3_FILL"/>
</g>

<g transform="matrix( 1.500823974609375, 0, 0, 1.5036163330078125, 118.45,23.1) ">
<use xlink:href="#SKYSCRAPER_300_X_600_PRODUCT_psd_Asset_FRAME_2_SO_YOU_CAN_RUN_free_0_Layer0_0_MEMBER_4_FILL"/>
</g>

<g transform="matrix( 1.500823974609375, 0, 0, 1.5036163330078125, 118.45,23.1) ">
<use xlink:href="#SKYSCRAPER_300_X_600_PRODUCT_psd_Asset_FRAME_2_SO_YOU_CAN_RUN_free_0_Layer0_0_MEMBER_5_FILL"/>
</g>

<g transform="matrix( 1.500823974609375, 0, 0, 1.5036163330078125, 118.45,23.1) ">
<use xlink:href="#SKYSCRAPER_300_X_600_PRODUCT_psd_Asset_FRAME_2_SO_YOU_CAN_RUN_free_0_Layer0_0_MEMBER_6_FILL"/>
</g>

<g transform="matrix( 1.500823974609375, 0, 0, 1.5036163330078125, 118.45,23.1) ">
<use xlink:href="#SKYSCRAPER_300_X_600_PRODUCT_psd_Asset_FRAME_2_SO_YOU_CAN_RUN_free_0_Layer0_0_MEMBER_7_FILL"/>
</g>

<g transform="matrix( 1.500823974609375, 0, 0, 1.5036163330078125, 118.45,23.1) ">
<use xlink:href="#SKYSCRAPER_300_X_600_PRODUCT_psd_Asset_FRAME_2_SO_YOU_CAN_RUN_free_0_Layer0_0_MEMBER_8_FILL"/>
</g>

<g transform="matrix( 1.500823974609375, 0, 0, 1.5036163330078125, 118.45,23.1) ">
<use xlink:href="#SKYSCRAPER_300_X_600_PRODUCT_psd_Asset_FRAME_2_SO_YOU_CAN_RUN_free_0_Layer0_0_MEMBER_9_FILL"/>
</g>

<g transform="matrix( 1.500823974609375, 0, 0, 1.5036163330078125, 118.45,23.1) ">
<use xlink:href="#SKYSCRAPER_300_X_600_PRODUCT_psd_Asset_FRAME_2_SO_YOU_CAN_RUN_free_0_Layer0_0_MEMBER_10_FILL"/>
</g>

<g transform="matrix( 1.500823974609375, 0, 0, 1.5036163330078125, 118.45,23.1) ">
<use xlink:href="#SKYSCRAPER_300_X_600_PRODUCT_psd_Asset_FRAME_2_SO_YOU_CAN_RUN_free_0_Layer0_0_MEMBER_11_FILL"/>
</g>

<g transform="matrix( 1.500823974609375, 0, 0, 1.5036163330078125, 118.45,23.1) ">
<use xlink:href="#SKYSCRAPER_300_X_600_PRODUCT_psd_Asset_FRAME_2_SO_YOU_CAN_RUN_free_0_Layer0_0_MEMBER_12_FILL"/>
</g>

<g transform="matrix( 1.500823974609375, 0, 0, 1.5036163330078125, 118.45,23.1) ">
<use xlink:href="#SKYSCRAPER_300_X_600_PRODUCT_psd_Asset_FRAME_2_SO_YOU_CAN_RUN_free_0_Layer0_0_MEMBER_13_FILL"/>
</g>

<g transform="matrix( 1.500823974609375, 0, 0, 1.5036163330078125, 118.45,23.1) ">
<use xlink:href="#SKYSCRAPER_300_X_600_PRODUCT_psd_Asset_FRAME_2_SO_YOU_CAN_RUN_free_0_Layer0_0_MEMBER_14_FILL"/>
</g>
</g>
</g>
</svg>
