
<svg xmlns="http://www.w3.org/2000/svg" version="1.1" xmlns:xlink="http://www.w3.org/1999/xlink" preserveAspectRatio="none" x="0px" y="0px" width="300px" height="600px" viewBox="0 0 300 600">
<defs>
<g id="SKYSCRAPER_300_X_600_PRODUCT_psd_Asset_FRAME_3_Breathe_in__Run_out__0_Layer0_0_MEMBER_0_FILL">
<path fill="#FFFFFF" stroke="none" d="
M -73.2 -14.75
L -78.85 -14.75 -78.85 0 -72.7 0
Q -70.4 0 -69.1 -1.05 -67.75 -2.15 -67.75 -4.2 -67.75 -5.35 -68.45 -6.35 -69.1 -7.25 -70.15 -7.6 -69.3 -7.9 -68.8 -8.7 -68.25 -9.6 -68.25 -10.75 -68.25 -12.65 -69.6 -13.7 -70.9 -14.75 -73.2 -14.75
M -75.9 -2.6
L -75.9 -6.3 -73 -6.3
Q -70.75 -6.3 -70.75 -4.45 -70.75 -2.6 -73 -2.6
L -75.9 -2.6
M -73.4 -8.7
L -75.9 -8.7 -75.9 -12.15 -73.4 -12.15
Q -71.15 -12.15 -71.15 -10.45 -71.15 -8.7 -73.4 -8.7 Z"/>
</g>

<g id="SKYSCRAPER_300_X_600_PRODUCT_psd_Asset_FRAME_3_Breathe_in__Run_out__0_Layer0_0_MEMBER_1_FILL">
<path fill="#FFFFFF" stroke="none" d="
M -52.15 -13.55
Q -53.55 -14.75 -55.9 -14.75
L -61.95 -14.75 -61.95 0 -58.9 0 -58.9 -5.5 -57.3 -5.5 -53.65 0 -50.2 0 -54.1 -5.7
Q -50.75 -6.5 -50.75 -10.05 -50.75 -12.3 -52.15 -13.55
M -58.9 -8
L -58.9 -12.1 -56.1 -12.1
Q -53.75 -12.1 -53.75 -10.05 -53.75 -9.1 -54.35 -8.55 -54.95 -8 -56.1 -8
L -58.9 -8 Z"/>
</g>

<g id="SKYSCRAPER_300_X_600_PRODUCT_psd_Asset_FRAME_3_Breathe_in__Run_out__0_Layer0_0_MEMBER_2_FILL">
<path fill="#FFFFFF" stroke="none" d="
M -41.85 -8.85
L -41.85 -12.05 -34.85 -12.05 -34.85 -14.75 -44.85 -14.75 -44.85 0 -34.85 0 -34.85 -2.7 -41.85 -2.7 -41.85 -6.2 -35.5 -6.2 -35.5 -8.85 -41.85 -8.85 Z"/>
</g>

<g id="SKYSCRAPER_300_X_600_PRODUCT_psd_Asset_FRAME_3_Breathe_in__Run_out__0_Layer0_0_MEMBER_3_FILL">
<path fill="#FFFFFF" stroke="none" d="
M -21.25 -14.75
L -24.3 -14.75 -29.95 0 -26.85 0 -25.55 -3.55 -20.05 -3.55 -18.7 0 -15.6 0 -21.25 -14.75
M -24.6 -6.15
L -22.8 -11.05 -21 -6.15 -24.6 -6.15 Z"/>
</g>

<g id="SKYSCRAPER_300_X_600_PRODUCT_psd_Asset_FRAME_3_Breathe_in__Run_out__0_Layer0_0_MEMBER_4_FILL">
<path fill="#FFFFFF" stroke="none" d="
M 0.05 -12.05
L 0.05 -14.75 -12.55 -14.75 -12.55 -12.05 -7.8 -12.05 -7.8 0 -4.7 0 -4.7 -12.05 0.05 -12.05 Z"/>
</g>

<g id="SKYSCRAPER_300_X_600_PRODUCT_psd_Asset_FRAME_3_Breathe_in__Run_out__0_Layer0_0_MEMBER_5_FILL">
<path fill="#FFFFFF" stroke="none" d="
M 18.5 -14.75
L 15.4 -14.75 15.4 -8.9 8.75 -8.9 8.75 -14.75 5.65 -14.75 5.65 0 8.75 0 8.75 -6.2 15.4 -6.2 15.4 0 18.5 0 18.5 -14.75 Z"/>
</g>

<g id="SKYSCRAPER_300_X_600_PRODUCT_psd_Asset_FRAME_3_Breathe_in__Run_out__0_Layer0_0_MEMBER_6_FILL">
<path fill="#FFFFFF" stroke="none" d="
M 27.95 -8.85
L 27.95 -12.05 34.9 -12.05 34.9 -14.75 24.9 -14.75 24.9 0 34.9 0 34.9 -2.7 27.95 -2.7 27.95 -6.2 34.25 -6.2 34.25 -8.85 27.95 -8.85 Z"/>
</g>

<g id="SKYSCRAPER_300_X_600_PRODUCT_psd_Asset_FRAME_3_Breathe_in__Run_out__0_Layer0_0_MEMBER_7_FILL">
<path fill="#FFFFFF" stroke="none" d="
M 52.65 -14.75
L 49.6 -14.75 49.6 0 52.65 0 52.65 -14.75 Z"/>
</g>

<g id="SKYSCRAPER_300_X_600_PRODUCT_psd_Asset_FRAME_3_Breathe_in__Run_out__0_Layer0_0_MEMBER_8_FILL">
<path fill="#FFFFFF" stroke="none" d="
M 61.95 -14.75
L 59.05 -14.75 59.05 0 62 0 62 -9.8 69 0 71.4 0 71.4 -14.75 68.45 -14.75 68.45 -5.4 61.95 -14.75 Z"/>
</g>

<g id="SKYSCRAPER_300_X_600_PRODUCT_psd_Asset_FRAME_3_Breathe_in__Run_out__0_Layer0_0_MEMBER_9_FILL">
<path fill="#FFFFFF" stroke="none" d="
M 76.4 -3.1
Q 75.85 -2.55 75.85 -1.75 75.85 -0.95 76.4 -0.4 76.95 0.15 77.75 0.15 78.55 0.15 79.05 -0.4 79.6 -0.95 79.6 -1.75 79.6 -2.55 79.05 -3.1 78.55 -3.65 77.75 -3.65 76.95 -3.65 76.4 -3.1 Z"/>
</g>

<g id="SKYSCRAPER_300_X_600_PRODUCT_psd_Asset_FRAME_3_Breathe_in__Run_out__0_Layer0_0_MEMBER_10_FILL">
<path fill="#FFFFFF" stroke="none" d="
M -45.95 11.95
Q -45.95 9.7 -47.35 8.45 -48.75 7.25 -51.1 7.25
L -57.15 7.25 -57.15 22 -54.1 22 -54.1 16.5 -52.5 16.5 -48.85 22 -45.4 22 -49.3 16.3
Q -45.95 15.5 -45.95 11.95
M -54.1 9.9
L -51.3 9.9
Q -48.95 9.9 -48.95 11.95 -48.95 12.9 -49.55 13.45 -50.15 14 -51.3 14
L -54.1 14 -54.1 9.9 Z"/>
</g>

<g id="SKYSCRAPER_300_X_600_PRODUCT_psd_Asset_FRAME_3_Breathe_in__Run_out__0_Layer0_0_MEMBER_11_FILL">
<path fill="#FFFFFF" stroke="none" d="
M -37.2 7.25
L -40.25 7.25 -40.25 16.05
Q -40.25 19.05 -38.55 20.7 -36.95 22.25 -34.15 22.25 -31.3 22.25 -29.7 20.7 -28.05 19.05 -28.05 16.05
L -28.05 7.25 -31.1 7.25 -31.1 15.75
Q -31.1 19.5 -34.15 19.5 -37.2 19.5 -37.2 15.75
L -37.2 7.25 Z"/>
</g>

<g id="SKYSCRAPER_300_X_600_PRODUCT_psd_Asset_FRAME_3_Breathe_in__Run_out__0_Layer0_0_MEMBER_12_FILL">
<path fill="#FFFFFF" stroke="none" d="
M -9.5 22
L -9.5 7.25 -12.45 7.25 -12.45 16.6 -18.95 7.25 -21.8 7.25 -21.8 22 -18.85 22 -18.85 12.2 -11.9 22 -9.5 22 Z"/>
</g>

<g id="SKYSCRAPER_300_X_600_PRODUCT_psd_Asset_FRAME_3_Breathe_in__Run_out__0_Layer0_0_MEMBER_13_FILL">
<path fill="#FFFFFF" stroke="none" d="
M 16.9 9.15
Q 14.95 7 11.9 7 8.85 7 6.85 9.15 4.9 11.3 4.9 14.65 4.9 17.95 6.85 20.1 8.85 22.25 11.9 22.25 14.95 22.25 16.9 20.1 18.85 17.95 18.85 14.65 18.85 11.3 16.9 9.15
M 11.9 9.75
Q 13.65 9.75 14.7 11.1 15.75 12.45 15.75 14.65 15.75 16.8 14.7 18.15 13.65 19.5 11.9 19.5 10.15 19.5 9.1 18.15 8.05 16.8 8.05 14.65 8.05 12.45 9.1 11.1 10.15 9.75 11.9 9.75 Z"/>
</g>

<g id="SKYSCRAPER_300_X_600_PRODUCT_psd_Asset_FRAME_3_Breathe_in__Run_out__0_Layer0_0_MEMBER_14_FILL">
<path fill="#FFFFFF" stroke="none" d="
M 36.65 7.25
L 33.55 7.25 33.55 15.75
Q 33.55 19.5 30.5 19.5 27.45 19.5 27.45 15.75
L 27.45 7.25 24.4 7.25 24.4 16.05
Q 24.4 19.05 26.1 20.7 27.7 22.25 30.5 22.25 33.35 22.25 34.95 20.7 36.65 19.05 36.65 16.05
L 36.65 7.25 Z"/>
</g>

<g id="SKYSCRAPER_300_X_600_PRODUCT_psd_Asset_FRAME_3_Breathe_in__Run_out__0_Layer0_0_MEMBER_15_FILL">
<path fill="#FFFFFF" stroke="none" d="
M 42.05 7.25
L 42.05 9.95 46.8 9.95 46.8 22 49.85 22 49.85 9.95 54.6 9.95 54.6 7.25 42.05 7.25 Z"/>
</g>

<g id="SKYSCRAPER_300_X_600_PRODUCT_psd_Asset_FRAME_3_Breathe_in__Run_out__0_Layer0_0_MEMBER_16_FILL">
<path fill="#FFFFFF" stroke="none" d="
M 54.75 18.9
Q 54.2 19.45 54.2 20.25 54.2 21.05 54.75 21.6 55.25 22.15 56.05 22.15 56.85 22.15 57.4 21.6 57.95 21.05 57.95 20.25 57.95 19.45 57.4 18.9 56.85 18.35 56.05 18.35 55.25 18.35 54.75 18.9 Z"/>
</g>
</defs>

<g transform="matrix( 1, 0, 0, 1, -833,-678) ">
<g transform="matrix( 1, 0, 0, 1, 865,886) ">
<g transform="matrix( 1.500823974609375, 0, 0, 1.5036163330078125, 118.45,23.1) ">
<use xlink:href="#SKYSCRAPER_300_X_600_PRODUCT_psd_Asset_FRAME_3_Breathe_in__Run_out__0_Layer0_0_MEMBER_0_FILL"/>
</g>

<g transform="matrix( 1.500823974609375, 0, 0, 1.5036163330078125, 118.45,23.1) ">
<use xlink:href="#SKYSCRAPER_300_X_600_PRODUCT_psd_Asset_FRAME_3_Breathe_in__Run_out__0_Layer0_0_MEMBER_1_FILL"/>
</g>

<g transform="matrix( 1.500823974609375, 0, 0, 1.5036163330078125, 118.45,23.1) ">
<use xlink:href="#SKYSCRAPER_300_X_600_PRODUCT_psd_Asset_FRAME_3_Breathe_in__Run_out__0_Layer0_0_MEMBER_2_FILL"/>
</g>

<g transform="matrix( 1.500823974609375, 0, 0, 1.5036163330078125, 118.45,23.1) ">
<use xlink:href="#SKYSCRAPER_300_X_600_PRODUCT_psd_Asset_FRAME_3_Breathe_in__Run_out__0_Layer0_0_MEMBER_3_FILL"/>
</g>

<g transform="matrix( 1.500823974609375, 0, 0, 1.5036163330078125, 118.45,23.1) ">
<use xlink:href="#SKYSCRAPER_300_X_600_PRODUCT_psd_Asset_FRAME_3_Breathe_in__Run_out__0_Layer0_0_MEMBER_4_FILL"/>
</g>

<g transform="matrix( 1.500823974609375, 0, 0, 1.5036163330078125, 118.45,23.1) ">
<use xlink:href="#SKYSCRAPER_300_X_600_PRODUCT_psd_Asset_FRAME_3_Breathe_in__Run_out__0_Layer0_0_MEMBER_5_FILL"/>
</g>

<g transform="matrix( 1.500823974609375, 0, 0, 1.5036163330078125, 118.45,23.1) ">
<use xlink:href="#SKYSCRAPER_300_X_600_PRODUCT_psd_Asset_FRAME_3_Breathe_in__Run_out__0_Layer0_0_MEMBER_6_FILL"/>
</g>

<g transform="matrix( 1.500823974609375, 0, 0, 1.5036163330078125, 118.45,23.1) ">
<use xlink:href="#SKYSCRAPER_300_X_600_PRODUCT_psd_Asset_FRAME_3_Breathe_in__Run_out__0_Layer0_0_MEMBER_7_FILL"/>
</g>

<g transform="matrix( 1.500823974609375, 0, 0, 1.5036163330078125, 118.45,23.1) ">
<use xlink:href="#SKYSCRAPER_300_X_600_PRODUCT_psd_Asset_FRAME_3_Breathe_in__Run_out__0_Layer0_0_MEMBER_8_FILL"/>
</g>

<g transform="matrix( 1.500823974609375, 0, 0, 1.5036163330078125, 118.45,23.1) ">
<use xlink:href="#SKYSCRAPER_300_X_600_PRODUCT_psd_Asset_FRAME_3_Breathe_in__Run_out__0_Layer0_0_MEMBER_9_FILL"/>
</g>

<g transform="matrix( 1.500823974609375, 0, 0, 1.5036163330078125, 118.45,23.1) ">
<use xlink:href="#SKYSCRAPER_300_X_600_PRODUCT_psd_Asset_FRAME_3_Breathe_in__Run_out__0_Layer0_0_MEMBER_10_FILL"/>
</g>

<g transform="matrix( 1.500823974609375, 0, 0, 1.5036163330078125, 118.45,23.1) ">
<use xlink:href="#SKYSCRAPER_300_X_600_PRODUCT_psd_Asset_FRAME_3_Breathe_in__Run_out__0_Layer0_0_MEMBER_11_FILL"/>
</g>

<g transform="matrix( 1.500823974609375, 0, 0, 1.5036163330078125, 118.45,23.1) ">
<use xlink:href="#SKYSCRAPER_300_X_600_PRODUCT_psd_Asset_FRAME_3_Breathe_in__Run_out__0_Layer0_0_MEMBER_12_FILL"/>
</g>

<g transform="matrix( 1.500823974609375, 0, 0, 1.5036163330078125, 118.45,23.1) ">
<use xlink:href="#SKYSCRAPER_300_X_600_PRODUCT_psd_Asset_FRAME_3_Breathe_in__Run_out__0_Layer0_0_MEMBER_13_FILL"/>
</g>

<g transform="matrix( 1.500823974609375, 0, 0, 1.5036163330078125, 118.45,23.1) ">
<use xlink:href="#SKYSCRAPER_300_X_600_PRODUCT_psd_Asset_FRAME_3_Breathe_in__Run_out__0_Layer0_0_MEMBER_14_FILL"/>
</g>

<g transform="matrix( 1.500823974609375, 0, 0, 1.5036163330078125, 118.45,23.1) ">
<use xlink:href="#SKYSCRAPER_300_X_600_PRODUCT_psd_Asset_FRAME_3_Breathe_in__Run_out__0_Layer0_0_MEMBER_15_FILL"/>
</g>

<g transform="matrix( 1.500823974609375, 0, 0, 1.5036163330078125, 118.45,23.1) ">
<use xlink:href="#SKYSCRAPER_300_X_600_PRODUCT_psd_Asset_FRAME_3_Breathe_in__Run_out__0_Layer0_0_MEMBER_16_FILL"/>
</g>
</g>
</g>
</svg>
